(kicad_pcb (version 20171130) (host pcbnew "(5.1.10)-1")

  (general
    (thickness 1.6)
    (drawings 4)
    (tracks 0)
    (zones 0)
    (modules 3)
    (nets 1)
  )

  (page A4)
  (layers
    (0 F.Cu signal)
    (31 B.Cu signal)
    (32 B.Adhes user)
    (33 F.Adhes user)
    (34 B.Paste user)
    (35 F.Paste user)
    (36 B.SilkS user)
    (37 F.SilkS user)
    (38 B.Mask user)
    (39 F.Mask user)
    (40 Dwgs.User user)
    (41 Cmts.User user)
    (42 Eco1.User user)
    (43 Eco2.User user)
    (44 Edge.Cuts user)
    (45 Margin user)
    (46 B.CrtYd user)
    (47 F.CrtYd user)
    (48 B.Fab user)
    (49 F.Fab user)
  )

  (setup
    (last_trace_width 0.25)
    (trace_clearance 0.2)
    (zone_clearance 0.508)
    (zone_45_only no)
    (trace_min 0.2)
    (via_size 0.8)
    (via_drill 0.4)
    (via_min_size 0.4)
    (via_min_drill 0.3)
    (uvia_size 0.3)
    (uvia_drill 0.1)
    (uvias_allowed no)
    (uvia_min_size 0.2)
    (uvia_min_drill 0.1)
    (edge_width 0.05)
    (segment_width 0.2)
    (pcb_text_width 0.3)
    (pcb_text_size 1.5 1.5)
    (mod_edge_width 0.12)
    (mod_text_size 1 1)
    (mod_text_width 0.15)
    (pad_size 1.524 1.524)
    (pad_drill 0.762)
    (pad_to_mask_clearance 0)
    (aux_axis_origin 0 0)
    (visible_elements 7FFFFFFF)
    (pcbplotparams
      (layerselection 0x010fc_ffffffff)
      (usegerberextensions false)
      (usegerberattributes true)
      (usegerberadvancedattributes true)
      (creategerberjobfile true)
      (excludeedgelayer true)
      (linewidth 0.100000)
      (plotframeref false)
      (viasonmask false)
      (mode 1)
      (useauxorigin false)
      (hpglpennumber 1)
      (hpglpenspeed 20)
      (hpglpendiameter 15.000000)
      (psnegative false)
      (psa4output false)
      (plotreference true)
      (plotvalue true)
      (plotinvisibletext false)
      (padsonsilk false)
      (subtractmaskfromsilk false)
      (outputformat 1)
      (mirror false)
      (drillshape 1)
      (scaleselection 1)
      (outputdirectory ""))
  )

  (net 0 "")

  (net_class Default "This is the default net class."
    (clearance 0.2)
    (trace_width 0.25)
    (via_dia 0.8)
    (via_drill 0.4)
    (uvia_dia 0.3)
    (uvia_drill 0.1)
  )

  (module HR911105A:HANRUN_HR911105A (layer F.Cu) (tedit 623DAF3B) (tstamp 623C1BC2)
    (at 141.1 88.75 90)
    (fp_text reference REF** (at -3.18815 -12.50276 90) (layer F.SilkS)
      (effects (font (size 1.607654 1.607654) (thickness 0.15)))
    )
    (fp_text value HANRUN_HR911105A (at 8.02765 12.354385 90) (layer F.Fab) hide
      (effects (font (size 1.605063 1.605063) (thickness 0.15)))
    )
    (fp_line (start 8 10.48) (end -8 10.48) (layer F.SilkS) (width 0.127))
    (fp_line (start 8 -10.92) (end -8 -10.92) (layer F.SilkS) (width 0.127))
    (fp_line (start -8 -10.92) (end -8 1.5) (layer F.SilkS) (width 0.127))
    (fp_line (start -8 4.6) (end -8 10.48) (layer F.SilkS) (width 0.127))
    (fp_line (start 8 -10.92) (end 8 1.5) (layer F.SilkS) (width 0.127))
    (fp_line (start 8 4.6) (end 8 10.48) (layer F.SilkS) (width 0.127))
    (fp_circle (center 5.8 6.3) (end 5.95 6.3) (layer F.Fab) (width 0.3))
    (fp_circle (center 9 6.3) (end 9.15 6.3) (layer F.SilkS) (width 0.3))
    (fp_line (start -8 -10.92) (end -8 10.48) (layer F.Fab) (width 0.127))
    (fp_line (start -8 10.48) (end 8 10.48) (layer F.Fab) (width 0.127))
    (fp_line (start 8 10.48) (end 8 -10.92) (layer F.Fab) (width 0.127))
    (fp_line (start 8 -10.92) (end -8 -10.92) (layer F.Fab) (width 0.127))
    (fp_line (start -9.25 -11.17) (end -9.25 10.73) (layer F.CrtYd) (width 0.05))
    (fp_line (start -9.25 10.73) (end 9.25 10.73) (layer F.CrtYd) (width 0.05))
    (fp_line (start 9.25 10.73) (end 9.25 -11.17) (layer F.CrtYd) (width 0.05))
    (fp_line (start 9.25 -11.17) (end -9.25 -11.17) (layer F.CrtYd) (width 0.05))
    (pad None np_thru_hole circle (at 5.715 0 90) (size 3.25 3.25) (drill 3.25) (layers *.Cu *.Mask))
    (pad None np_thru_hole circle (at -5.715 0 90) (size 3.25 3.25) (drill 3.25) (layers *.Cu *.Mask))
    (pad 16 thru_hole circle (at -7.745 3.05 90) (size 2.445 2.445) (drill 1.63) (layers *.Cu *.Mask))
    (pad 15 thru_hole circle (at 7.745 3.05 90) (size 2.445 2.445) (drill 1.63) (layers *.Cu *.Mask))
    (pad 11 thru_hole circle (at -4.085 -4.9 90) (size 1.53 1.53) (drill 1.02) (layers *.Cu *.Mask))
    (pad 12 thru_hole circle (at -6.625 -4.9 90) (size 1.53 1.53) (drill 1.02) (layers *.Cu *.Mask))
    (pad 10 thru_hole circle (at 4.085 -4.9 90) (size 1.53 1.53) (drill 1.02) (layers *.Cu *.Mask))
    (pad 9 thru_hole circle (at 6.625 -4.9 90) (size 1.53 1.53) (drill 1.02) (layers *.Cu *.Mask))
    (pad 8 thru_hole circle (at -4.44 8.89 90) (size 1.398 1.398) (drill 0.89) (layers *.Cu *.Mask))
    (pad 7 thru_hole circle (at -3.17 6.35 90) (size 1.398 1.398) (drill 0.89) (layers *.Cu *.Mask))
    (pad 6 thru_hole circle (at -1.9 8.89 90) (size 1.398 1.398) (drill 0.89) (layers *.Cu *.Mask))
    (pad 5 thru_hole circle (at -0.63 6.35 90) (size 1.398 1.398) (drill 0.89) (layers *.Cu *.Mask))
    (pad 4 thru_hole circle (at 0.64 8.89 90) (size 1.398 1.398) (drill 0.89) (layers *.Cu *.Mask))
    (pad 3 thru_hole circle (at 1.91 6.35 90) (size 1.398 1.398) (drill 0.89) (layers *.Cu *.Mask))
    (pad 2 thru_hole circle (at 3.18 8.89 90) (size 1.398 1.398) (drill 0.89) (layers *.Cu *.Mask))
    (pad 1 thru_hole rect (at 4.45 6.35 90) (size 1.398 1.398) (drill 0.89) (layers *.Cu *.Mask))
    (model "C:/dev/pcbpublic/KiCad/Library/HR911105A/HANRUN HR911105A.STEP"
      (at (xyz 0 0 0))
      (scale (xyz 1 1 1))
      (rotate (xyz 0 0 180))
    )
  )

  (module Connector_PinHeader_2.54mm:PinHeader_2x05_P2.54mm_Vertical (layer F.Cu) (tedit 59FED5CC) (tstamp 623BDCCE)
    (at 179.1 93.9 180)
    (descr "Through hole straight pin header, 2x05, 2.54mm pitch, double rows")
    (tags "Through hole pin header THT 2x05 2.54mm double row")
    (fp_text reference REF** (at 1.27 -2.33) (layer F.SilkS)
      (effects (font (size 1 1) (thickness 0.15)))
    )
    (fp_text value PinHeader_2x05_P2.54mm_Vertical (at 1.27 12.49) (layer F.Fab)
      (effects (font (size 1 1) (thickness 0.15)))
    )
    (fp_text user %R (at 1.27 5.08 90) (layer F.Fab)
      (effects (font (size 1 1) (thickness 0.15)))
    )
    (fp_line (start 0 -1.27) (end 3.81 -1.27) (layer F.Fab) (width 0.1))
    (fp_line (start 3.81 -1.27) (end 3.81 11.43) (layer F.Fab) (width 0.1))
    (fp_line (start 3.81 11.43) (end -1.27 11.43) (layer F.Fab) (width 0.1))
    (fp_line (start -1.27 11.43) (end -1.27 0) (layer F.Fab) (width 0.1))
    (fp_line (start -1.27 0) (end 0 -1.27) (layer F.Fab) (width 0.1))
    (fp_line (start -1.33 11.49) (end 3.87 11.49) (layer F.SilkS) (width 0.12))
    (fp_line (start -1.33 1.27) (end -1.33 11.49) (layer F.SilkS) (width 0.12))
    (fp_line (start 3.87 -1.33) (end 3.87 11.49) (layer F.SilkS) (width 0.12))
    (fp_line (start -1.33 1.27) (end 1.27 1.27) (layer F.SilkS) (width 0.12))
    (fp_line (start 1.27 1.27) (end 1.27 -1.33) (layer F.SilkS) (width 0.12))
    (fp_line (start 1.27 -1.33) (end 3.87 -1.33) (layer F.SilkS) (width 0.12))
    (fp_line (start -1.33 0) (end -1.33 -1.33) (layer F.SilkS) (width 0.12))
    (fp_line (start -1.33 -1.33) (end 0 -1.33) (layer F.SilkS) (width 0.12))
    (fp_line (start -1.8 -1.8) (end -1.8 11.95) (layer F.CrtYd) (width 0.05))
    (fp_line (start -1.8 11.95) (end 4.35 11.95) (layer F.CrtYd) (width 0.05))
    (fp_line (start 4.35 11.95) (end 4.35 -1.8) (layer F.CrtYd) (width 0.05))
    (fp_line (start 4.35 -1.8) (end -1.8 -1.8) (layer F.CrtYd) (width 0.05))
    (pad 10 thru_hole oval (at 2.54 10.16 180) (size 1.7 1.7) (drill 1) (layers *.Cu *.Mask))
    (pad 9 thru_hole oval (at 0 10.16 180) (size 1.7 1.7) (drill 1) (layers *.Cu *.Mask))
    (pad 8 thru_hole oval (at 2.54 7.62 180) (size 1.7 1.7) (drill 1) (layers *.Cu *.Mask))
    (pad 7 thru_hole oval (at 0 7.62 180) (size 1.7 1.7) (drill 1) (layers *.Cu *.Mask))
    (pad 6 thru_hole oval (at 2.54 5.08 180) (size 1.7 1.7) (drill 1) (layers *.Cu *.Mask))
    (pad 5 thru_hole oval (at 0 5.08 180) (size 1.7 1.7) (drill 1) (layers *.Cu *.Mask))
    (pad 4 thru_hole oval (at 2.54 2.54 180) (size 1.7 1.7) (drill 1) (layers *.Cu *.Mask))
    (pad 3 thru_hole oval (at 0 2.54 180) (size 1.7 1.7) (drill 1) (layers *.Cu *.Mask))
    (pad 2 thru_hole oval (at 2.54 0 180) (size 1.7 1.7) (drill 1) (layers *.Cu *.Mask))
    (pad 1 thru_hole rect (at 0 0 180) (size 1.7 1.7) (drill 1) (layers *.Cu *.Mask))
    (model ${KISYS3DMOD}/Connector_PinHeader_2.54mm.3dshapes/PinHeader_2x05_P2.54mm_Vertical.wrl
      (at (xyz 0 0 0))
      (scale (xyz 1 1 1))
      (rotate (xyz 0 0 0))
    )
  )

  (module ENC28J60:SOP65P780X200-28N (layer F.Cu) (tedit 0) (tstamp 623C2ABB)
    (at 161.3 89 180)
    (descr "28-Lead Plastic Shrink Small Outline (SS)")
    (tags "Integrated Circuit")
    (attr smd)
    (fp_text reference IC** (at 0 0) (layer F.SilkS)
      (effects (font (size 1.27 1.27) (thickness 0.254)))
    )
    (fp_text value SOP65P780X200-28N (at 0 0) (layer F.SilkS) hide
      (effects (font (size 1.27 1.27) (thickness 0.254)))
    )
    (fp_text user %R (at 0 0) (layer F.Fab)
      (effects (font (size 1.27 1.27) (thickness 0.254)))
    )
    (fp_line (start -4.7 -5.5) (end 4.7 -5.5) (layer F.CrtYd) (width 0.05))
    (fp_line (start 4.7 -5.5) (end 4.7 5.5) (layer F.CrtYd) (width 0.05))
    (fp_line (start 4.7 5.5) (end -4.7 5.5) (layer F.CrtYd) (width 0.05))
    (fp_line (start -4.7 5.5) (end -4.7 -5.5) (layer F.CrtYd) (width 0.05))
    (fp_line (start -2.65 -5.1) (end 2.65 -5.1) (layer F.Fab) (width 0.1))
    (fp_line (start 2.65 -5.1) (end 2.65 5.1) (layer F.Fab) (width 0.1))
    (fp_line (start 2.65 5.1) (end -2.65 5.1) (layer F.Fab) (width 0.1))
    (fp_line (start -2.65 5.1) (end -2.65 -5.1) (layer F.Fab) (width 0.1))
    (fp_line (start -2.65 -4.45) (end -2 -5.1) (layer F.Fab) (width 0.1))
    (fp_line (start -2.3 -5.1) (end 2.3 -5.1) (layer F.SilkS) (width 0.2))
    (fp_line (start 2.3 -5.1) (end 2.3 5.1) (layer F.SilkS) (width 0.2))
    (fp_line (start 2.3 5.1) (end -2.3 5.1) (layer F.SilkS) (width 0.2))
    (fp_line (start -2.3 5.1) (end -2.3 -5.1) (layer F.SilkS) (width 0.2))
    (fp_line (start -4.45 -4.8) (end -2.65 -4.8) (layer F.SilkS) (width 0.2))
    (pad 28 smd rect (at 3.55 -4.225 270) (size 0.45 1.8) (layers F.Cu F.Paste F.Mask))
    (pad 27 smd rect (at 3.55 -3.575 270) (size 0.45 1.8) (layers F.Cu F.Paste F.Mask))
    (pad 26 smd rect (at 3.55 -2.925 270) (size 0.45 1.8) (layers F.Cu F.Paste F.Mask))
    (pad 25 smd rect (at 3.55 -2.275 270) (size 0.45 1.8) (layers F.Cu F.Paste F.Mask))
    (pad 24 smd rect (at 3.55 -1.625 270) (size 0.45 1.8) (layers F.Cu F.Paste F.Mask))
    (pad 23 smd rect (at 3.55 -0.975 270) (size 0.45 1.8) (layers F.Cu F.Paste F.Mask))
    (pad 22 smd rect (at 3.55 -0.325 270) (size 0.45 1.8) (layers F.Cu F.Paste F.Mask))
    (pad 21 smd rect (at 3.55 0.325 270) (size 0.45 1.8) (layers F.Cu F.Paste F.Mask))
    (pad 20 smd rect (at 3.55 0.975 270) (size 0.45 1.8) (layers F.Cu F.Paste F.Mask))
    (pad 19 smd rect (at 3.55 1.625 270) (size 0.45 1.8) (layers F.Cu F.Paste F.Mask))
    (pad 18 smd rect (at 3.55 2.275 270) (size 0.45 1.8) (layers F.Cu F.Paste F.Mask))
    (pad 17 smd rect (at 3.55 2.925 270) (size 0.45 1.8) (layers F.Cu F.Paste F.Mask))
    (pad 16 smd rect (at 3.55 3.575 270) (size 0.45 1.8) (layers F.Cu F.Paste F.Mask))
    (pad 15 smd rect (at 3.55 4.225 270) (size 0.45 1.8) (layers F.Cu F.Paste F.Mask))
    (pad 14 smd rect (at -3.55 4.225 270) (size 0.45 1.8) (layers F.Cu F.Paste F.Mask))
    (pad 13 smd rect (at -3.55 3.575 270) (size 0.45 1.8) (layers F.Cu F.Paste F.Mask))
    (pad 12 smd rect (at -3.55 2.925 270) (size 0.45 1.8) (layers F.Cu F.Paste F.Mask))
    (pad 11 smd rect (at -3.55 2.275 270) (size 0.45 1.8) (layers F.Cu F.Paste F.Mask))
    (pad 10 smd rect (at -3.55 1.625 270) (size 0.45 1.8) (layers F.Cu F.Paste F.Mask))
    (pad 9 smd rect (at -3.55 0.975 270) (size 0.45 1.8) (layers F.Cu F.Paste F.Mask))
    (pad 8 smd rect (at -3.55 0.325 270) (size 0.45 1.8) (layers F.Cu F.Paste F.Mask))
    (pad 7 smd rect (at -3.55 -0.325 270) (size 0.45 1.8) (layers F.Cu F.Paste F.Mask))
    (pad 6 smd rect (at -3.55 -0.975 270) (size 0.45 1.8) (layers F.Cu F.Paste F.Mask))
    (pad 5 smd rect (at -3.55 -1.625 270) (size 0.45 1.8) (layers F.Cu F.Paste F.Mask))
    (pad 4 smd rect (at -3.55 -2.275 270) (size 0.45 1.8) (layers F.Cu F.Paste F.Mask))
    (pad 3 smd rect (at -3.55 -2.925 270) (size 0.45 1.8) (layers F.Cu F.Paste F.Mask))
    (pad 2 smd rect (at -3.55 -3.575 270) (size 0.45 1.8) (layers F.Cu F.Paste F.Mask))
    (pad 1 smd rect (at -3.55 -4.225 270) (size 0.45 1.8) (layers F.Cu F.Paste F.Mask))
    (model ENC28J60_SS.stp
      (at (xyz 0 0 0))
      (scale (xyz 1 1 1))
      (rotate (xyz 0 0 0))
    )
  )

  (gr_line (start 132.5 97.5) (end 132.5 80) (layer Edge.Cuts) (width 0.05) (tstamp 623BBE69))
  (gr_line (start 180.5 97.5) (end 132.5 97.5) (layer Edge.Cuts) (width 0.05))
  (gr_line (start 180.5 80) (end 180.5 97.5) (layer Edge.Cuts) (width 0.05))
  (gr_line (start 132.5 80) (end 180.5 80) (layer Edge.Cuts) (width 0.05))

)
