ISO-10303-21;
HEADER;
FILE_DESCRIPTION (( 'STEP AP214' ),
    '1' );
FILE_NAME ('AB26TRQ.STEP',
    '2013-08-13T09:36:18',
    ( '' ),
    ( '' ),
    'SwSTEP 2.0',
    'SolidWorks 2012',
    '' );
FILE_SCHEMA (( 'AUTOMOTIVE_DESIGN' ));
ENDSEC;

DATA;
#1 = ORIENTED_EDGE ( 'NONE', *, *, #930, .T. ) ;
#2 = ORIENTED_EDGE ( 'NONE', *, *, #931, .T. ) ;
#3 = ORIENTED_EDGE ( 'NONE', *, *, #958, .T. ) ;
#4 = ORIENTED_EDGE ( 'NONE', *, *, #921, .T. ) ;
#5 = ORIENTED_EDGE ( 'NONE', *, *, #929, .T. ) ;
#6 = ORIENTED_EDGE ( 'NONE', *, *, #955, .T. ) ;
#7 = ORIENTED_EDGE ( 'NONE', *, *, #909, .T. ) ;
#8 = ORIENTED_EDGE ( 'NONE', *, *, #829, .F. ) ;
#9 = ORIENTED_EDGE ( 'NONE', *, *, #909, .F. ) ;
#10 = ORIENTED_EDGE ( 'NONE', *, *, #902, .T. ) ;
#11 = ORIENTED_EDGE ( 'NONE', *, *, #911, .T. ) ;
#12 = ORIENTED_EDGE ( 'NONE', *, *, #903, .F. ) ;
#13 = ORIENTED_EDGE ( 'NONE', *, *, #905, .T. ) ;
#14 = ORIENTED_EDGE ( 'NONE', *, *, #917, .T. ) ;
#15 = ORIENTED_EDGE ( 'NONE', *, *, #837, .T. ) ;
#16 = EDGE_LOOP ( 'NONE', ( #726, #740 ) ) ;
#17 = ORIENTED_EDGE ( 'NONE', *, *, #894, .F. ) ;
#18 = ORIENTED_EDGE ( 'NONE', *, *, #966, .T. ) ;
#19 = ORIENTED_EDGE ( 'NONE', *, *, #974, .T. ) ;
#20 = ORIENTED_EDGE ( 'NONE', *, *, #918, .F. ) ;
#21 = ORIENTED_EDGE ( 'NONE', *, *, #920, .T. ) ;
#22 = ORIENTED_EDGE ( 'NONE', *, *, #971, .T. ) ;
#23 = ORIENTED_EDGE ( 'NONE', *, *, #945, .T. ) ;
#24 = ORIENTED_EDGE ( 'NONE', *, *, #879, .F. ) ;
#25 = ORIENTED_EDGE ( 'NONE', *, *, #937, .T. ) ;
#26 = ORIENTED_EDGE ( 'NONE', *, *, #891, .F. ) ;
#27 = EDGE_LOOP ( 'NONE', ( #97, #8, #12, #5, #11, #10 ) ) ;
#28 = EDGE_LOOP ( 'NONE', ( #116, #112, #133, #132, #93 ) ) ;
#29 = ORIENTED_EDGE ( 'NONE', *, *, #923, .T. ) ;
#30 = EDGE_LOOP ( 'NONE', ( #36, #41, #35, #106, #84 ) ) ;
#31 = ORIENTED_EDGE ( 'NONE', *, *, #934, .T. ) ;
#32 = EDGE_LOOP ( 'NONE', ( #99, #72, #71, #73 ) ) ;
#33 = EDGE_LOOP ( 'NONE', ( #688, #736, #716, #686, #730, #721, #713, #712 ) ) ;
#34 = ORIENTED_EDGE ( 'NONE', *, *, #944, .F. ) ;
#35 = ORIENTED_EDGE ( 'NONE', *, *, #936, .T. ) ;
#36 = ORIENTED_EDGE ( 'NONE', *, *, #934, .F. ) ;
#37 = ORIENTED_EDGE ( 'NONE', *, *, #926, .F. ) ;
#38 = ORIENTED_EDGE ( 'NONE', *, *, #923, .F. ) ;
#39 = ORIENTED_EDGE ( 'NONE', *, *, #975, .T. ) ;
#40 = ORIENTED_EDGE ( 'NONE', *, *, #896, .F. ) ;
#41 = ORIENTED_EDGE ( 'NONE', *, *, #952, .F. ) ;
#42 = ORIENTED_EDGE ( 'NONE', *, *, #925, .F. ) ;
#43 = ORIENTED_EDGE ( 'NONE', *, *, #949, .T. ) ;
#44 = ORIENTED_EDGE ( 'NONE', *, *, #880, .F. ) ;
#45 = ORIENTED_EDGE ( 'NONE', *, *, #887, .T. ) ;
#46 = ORIENTED_EDGE ( 'NONE', *, *, #878, .F. ) ;
#47 = ORIENTED_EDGE ( 'NONE', *, *, #950, .T. ) ;
#48 = ORIENTED_EDGE ( 'NONE', *, *, #971, .F. ) ;
#49 = ORIENTED_EDGE ( 'NONE', *, *, #906, .T. ) ;
#50 = ORIENTED_EDGE ( 'NONE', *, *, #886, .T. ) ;
#51 = ORIENTED_EDGE ( 'NONE', *, *, #918, .T. ) ;
#52 = ORIENTED_EDGE ( 'NONE', *, *, #946, .F. ) ;
#53 = ORIENTED_EDGE ( 'NONE', *, *, #915, .F. ) ;
#54 = ORIENTED_EDGE ( 'NONE', *, *, #879, .T. ) ;
#55 = ORIENTED_EDGE ( 'NONE', *, *, #878, .T. ) ;
#56 = ORIENTED_EDGE ( 'NONE', *, *, #902, .F. ) ;
#57 = ORIENTED_EDGE ( 'NONE', *, *, #910, .T. ) ;
#58 = ORIENTED_EDGE ( 'NONE', *, *, #967, .F. ) ;
#59 = ORIENTED_EDGE ( 'NONE', *, *, #929, .F. ) ;
#60 = ORIENTED_EDGE ( 'NONE', *, *, #906, .F. ) ;
#61 = EDGE_LOOP ( 'NONE', ( #98, #70, #75, #101 ) ) ;
#62 = ORIENTED_EDGE ( 'NONE', *, *, #897, .T. ) ;
#63 = ORIENTED_EDGE ( 'NONE', *, *, #901, .F. ) ;
#64 = ORIENTED_EDGE ( 'NONE', *, *, #904, .F. ) ;
#65 = ORIENTED_EDGE ( 'NONE', *, *, #894, .T. ) ;
#66 = ORIENTED_EDGE ( 'NONE', *, *, #922, .F. ) ;
#67 = ORIENTED_EDGE ( 'NONE', *, *, #882, .T. ) ;
#68 = ORIENTED_EDGE ( 'NONE', *, *, #907, .F. ) ;
#69 = ORIENTED_EDGE ( 'NONE', *, *, #933, .T. ) ;
#70 = ORIENTED_EDGE ( 'NONE', *, *, #939, .F. ) ;
#71 = ORIENTED_EDGE ( 'NONE', *, *, #951, .T. ) ;
#72 = ORIENTED_EDGE ( 'NONE', *, *, #948, .F. ) ;
#73 = ORIENTED_EDGE ( 'NONE', *, *, #922, .T. ) ;
#74 = ORIENTED_EDGE ( 'NONE', *, *, #940, .F. ) ;
#75 = ORIENTED_EDGE ( 'NONE', *, *, #941, .T. ) ;
#76 = ORIENTED_EDGE ( 'NONE', *, *, #966, .F. ) ;
#77 = ORIENTED_EDGE ( 'NONE', *, *, #908, .T. ) ;
#78 = ORIENTED_EDGE ( 'NONE', *, *, #931, .F. ) ;
#79 = ORIENTED_EDGE ( 'NONE', *, *, #959, .F. ) ;
#80 = ORIENTED_EDGE ( 'NONE', *, *, #904, .T. ) ;
#81 = ORIENTED_EDGE ( 'NONE', *, *, #930, .F. ) ;
#82 = ORIENTED_EDGE ( 'NONE', *, *, #946, .T. ) ;
#83 = ORIENTED_EDGE ( 'NONE', *, *, #916, .F. ) ;
#84 = ORIENTED_EDGE ( 'NONE', *, *, #942, .F. ) ;
#85 = ORIENTED_EDGE ( 'NONE', *, *, #835, .F. ) ;
#86 = ORIENTED_EDGE ( 'NONE', *, *, #900, .F. ) ;
#87 = ORIENTED_EDGE ( 'NONE', *, *, #947, .F. ) ;
#88 = ORIENTED_EDGE ( 'NONE', *, *, #928, .F. ) ;
#89 = ORIENTED_EDGE ( 'NONE', *, *, #938, .T. ) ;
#90 = ORIENTED_EDGE ( 'NONE', *, *, #919, .T. ) ;
#91 = ORIENTED_EDGE ( 'NONE', *, *, #890, .F. ) ;
#92 = ORIENTED_EDGE ( 'NONE', *, *, #746, .F. ) ;
#93 = ORIENTED_EDGE ( 'NONE', *, *, #945, .F. ) ;
#94 = ORIENTED_EDGE ( 'NONE', *, *, #954, .T. ) ;
#95 = ORIENTED_EDGE ( 'NONE', *, *, #967, .T. ) ;
#96 = ORIENTED_EDGE ( 'NONE', *, *, #956, .F. ) ;
#97 = ORIENTED_EDGE ( 'NONE', *, *, #899, .F. ) ;
#98 = ORIENTED_EDGE ( 'NONE', *, *, #935, .F. ) ;
#99 = ORIENTED_EDGE ( 'NONE', *, *, #974, .F. ) ;
#100 = ORIENTED_EDGE ( 'NONE', *, *, #885, .F. ) ;
#101 = ORIENTED_EDGE ( 'NONE', *, *, #913, .T. ) ;
#102 = ORIENTED_EDGE ( 'NONE', *, *, #913, .F. ) ;
#103 = ORIENTED_EDGE ( 'NONE', *, *, #912, .T. ) ;
#104 = ORIENTED_EDGE ( 'NONE', *, *, #948, .T. ) ;
#105 = ORIENTED_EDGE ( 'NONE', *, *, #880, .T. ) ;
#106 = ORIENTED_EDGE ( 'NONE', *, *, #939, .T. ) ;
#107 = ORIENTED_EDGE ( 'NONE', *, *, #883, .F. ) ;
#108 = ORIENTED_EDGE ( 'NONE', *, *, #887, .F. ) ;
#109 = ORIENTED_EDGE ( 'NONE', *, *, #895, .F. ) ;
#110 = ORIENTED_EDGE ( 'NONE', *, *, #881, .T. ) ;
#111 = ORIENTED_EDGE ( 'NONE', *, *, #888, .T. ) ;
#112 = ORIENTED_EDGE ( 'NONE', *, *, #907, .T. ) ;
#113 = ORIENTED_EDGE ( 'NONE', *, *, #889, .T. ) ;
#114 = ORIENTED_EDGE ( 'NONE', *, *, #921, .F. ) ;
#115 = ORIENTED_EDGE ( 'NONE', *, *, #917, .F. ) ;
#116 = ORIENTED_EDGE ( 'NONE', *, *, #891, .T. ) ;
#117 = ORIENTED_EDGE ( 'NONE', *, *, #920, .F. ) ;
#118 = ORIENTED_EDGE ( 'NONE', *, *, #897, .F. ) ;
#119 = ORIENTED_EDGE ( 'NONE', *, *, #883, .T. ) ;
#120 = ORIENTED_EDGE ( 'NONE', *, *, #889, .F. ) ;
#121 = ORIENTED_EDGE ( 'NONE', *, *, #881, .F. ) ;
#122 = ORIENTED_EDGE ( 'NONE', *, *, #903, .T. ) ;
#123 = ORIENTED_EDGE ( 'NONE', *, *, #885, .T. ) ;
#124 = ORIENTED_EDGE ( 'NONE', *, *, #899, .T. ) ;
#125 = ORIENTED_EDGE ( 'NONE', *, *, #900, .T. ) ;
#126 = ORIENTED_EDGE ( 'NONE', *, *, #953, .F. ) ;
#127 = ORIENTED_EDGE ( 'NONE', *, *, #893, .T. ) ;
#128 = ORIENTED_EDGE ( 'NONE', *, *, #896, .T. ) ;
#129 = ORIENTED_EDGE ( 'NONE', *, *, #919, .F. ) ;
#130 = ORIENTED_EDGE ( 'NONE', *, *, #932, .T. ) ;
#131 = ORIENTED_EDGE ( 'NONE', *, *, #957, .T. ) ;
#132 = ORIENTED_EDGE ( 'NONE', *, *, #949, .F. ) ;
#133 = ORIENTED_EDGE ( 'NONE', *, *, #914, .T. ) ;
#134 = ORIENTED_EDGE ( 'NONE', *, *, #882, .F. ) ;
#135 = ORIENTED_EDGE ( 'NONE', *, *, #744, .T. ) ;
#136 = ORIENTED_EDGE ( 'NONE', *, *, #895, .T. ) ;
#137 = ORIENTED_EDGE ( 'NONE', *, *, #905, .F. ) ;
#138 = ORIENTED_EDGE ( 'NONE', *, *, #957, .F. ) ;
#139 = ORIENTED_EDGE ( 'NONE', *, *, #916, .T. ) ;
#140 = EDGE_LOOP ( 'NONE', ( #702, #710, #741, #29 ) ) ;
#141 = ORIENTED_EDGE ( 'NONE', *, *, #892, .F. ) ;
#142 = ORIENTED_EDGE ( 'NONE', *, *, #890, .T. ) ;
#143 = ORIENTED_EDGE ( 'NONE', *, *, #893, .F. ) ;
#144 = ORIENTED_EDGE ( 'NONE', *, *, #901, .T. ) ;
#145 = ORIENTED_EDGE ( 'NONE', *, *, #898, .T. ) ;
#146 = ORIENTED_EDGE ( 'NONE', *, *, #925, .T. ) ;
#147 = ORIENTED_EDGE ( 'NONE', *, *, #915, .T. ) ;
#148 = ORIENTED_EDGE ( 'NONE', *, *, #888, .F. ) ;
#149 = ORIENTED_EDGE ( 'NONE', *, *, #908, .F. ) ;
#150 = EDGE_LOOP ( 'NONE', ( #123, #187, #183, #37 ) ) ;
#151 = EDGE_LOOP ( 'NONE', ( #18, #38, #186, #190 ) ) ;
#152 = EDGE_LOOP ( 'NONE', ( #695, #698 ) ) ;
#153 = EDGE_LOOP ( 'NONE', ( #95, #19, #179, #88 ) ) ;
#154 = EDGE_LOOP ( 'NONE', ( #126, #124, #125, #3, #59, #115 ) ) ;
#155 = EDGE_LOOP ( 'NONE', ( #113, #142, #141, #68, #60, #128 ) ) ;
#156 = EDGE_LOOP ( 'NONE', ( #121, #62, #145, #63, #64 ) ) ;
#157 = EDGE_LOOP ( 'NONE', ( #709, #691 ) ) ;
#158 = EDGE_LOOP ( 'NONE', ( #708, #738, #711, #727, #734 ) ) ;
#159 = EDGE_LOOP ( 'NONE', ( #689, #739, #131, #693, #719, #714 ) ) ;
#160 = EDGE_LOOP ( 'NONE', ( #2, #135, #1, #130, #137 ) ) ;
#161 = EDGE_LOOP ( 'NONE', ( #720, #699 ) ) ;
#162 = EDGE_LOOP ( 'NONE', ( #110, #105, #109, #107, #108, #111 ) ) ;
#163 = EDGE_LOOP ( 'NONE', ( #707, #731, #706, #723, #694, #703 ) ) ;
#164 = EDGE_LOOP ( 'NONE', ( #733, #697, #729, #705 ) ) ;
#165 = ORIENTED_EDGE ( 'NONE', *, *, #927, .F. ) ;
#166 = EDGE_LOOP ( 'NONE', ( #696, #682, #690, #23, #149 ) ) ;
#167 = EDGE_LOOP ( 'NONE', ( #43, #77 ) ) ;
#168 = EDGE_LOOP ( 'NONE', ( #76, #102, #103, #104, #58 ) ) ;
#169 = EDGE_LOOP ( 'NONE', ( #31, #165, #191, #188 ) ) ;
#170 = EDGE_LOOP ( 'NONE', ( #96, #86, #56, #57, #55, #4 ) ) ;
#171 = EDGE_LOOP ( 'NONE', ( #81, #6, #7, #13, #15 ) ) ;
#172 = EDGE_LOOP ( 'NONE', ( #85, #78, #9, #94, #14, #122 ) ) ;
#173 = EDGE_LOOP ( 'NONE', ( #53, #46, #79, #21, #22 ) ) ;
#174 = EDGE_LOOP ( 'NONE', ( #677, #728, #692, #704 ) ) ;
#175 = EDGE_LOOP ( 'NONE', ( #44, #80, #51, #45, #17, #42 ) ) ;
#176 = EDGE_LOOP ( 'NONE', ( #134, #136, #146, #127, #40, #24 ) ) ;
#177 = EDGE_LOOP ( 'NONE', ( #74, #66, #50, #82, #100 ) ) ;
#178 = EDGE_LOOP ( 'NONE', ( #48, #83 ) ) ;
#179 = ORIENTED_EDGE ( 'NONE', *, *, #940, .T. ) ;
#180 = EDGE_LOOP ( 'NONE', ( #87, #52, #89, #25 ) ) ;
#181 = EDGE_LOOP ( 'NONE', ( #69, #39, #47, #34 ) ) ;
#182 = EDGE_LOOP ( 'NONE', ( #114, #147, #139, #117, #138 ) ) ;
#183 = ORIENTED_EDGE ( 'NONE', *, *, #768, .T. ) ;
#184 = EDGE_LOOP ( 'NONE', ( #118, #148, #20, #144, #189 ) ) ;
#185 = EDGE_LOOP ( 'NONE', ( #65, #119, #67, #129, #120, #143 ) ) ;
#186 = ORIENTED_EDGE ( 'NONE', *, *, #942, .T. ) ;
#187 = ORIENTED_EDGE ( 'NONE', *, *, #947, .T. ) ;
#188 = ORIENTED_EDGE ( 'NONE', *, *, #756, .T. ) ;
#189 = ORIENTED_EDGE ( 'NONE', *, *, #823, .T. ) ;
#190 = ORIENTED_EDGE ( 'NONE', *, *, #935, .T. ) ;
#191 = ORIENTED_EDGE ( 'NONE', *, *, #831, .T. ) ;
#192 = EDGE_LOOP ( 'NONE', ( #91, #90, #54, #49, #26, #92 ) ) ;
#193 = UNCERTAINTY_MEASURE_WITH_UNIT (LENGTH_MEASURE( 1.000000000000000100E-005 ), #257, 'distance_accuracy_value', 'NONE');
#194 = B_SPLINE_CURVE_WITH_KNOTS ( 'NONE', 3,
 ( #432, #291, #457, #262 ),
 .UNSPECIFIED., .F., .F.,
 ( 4, 4 ),
 ( 0.002480965390167066100, 0.003015225517236995300 ),
 .UNSPECIFIED. ) ;
#195 = PLANE ( 'NONE',  #995 ) ;
#196 = DIRECTION ( 'NONE',  ( 0.0000000000000000000, 0.0000000000000000000, 1.000000000000000000 ) ) ;
#197 = CARTESIAN_POINT ( 'NONE',  ( -6.076712978833652000, -0.1985669269552909900, -0.4168199276064087900 ) ) ;
#198 = VERTEX_POINT ( 'NONE', #420 ) ;
#199 = CARTESIAN_POINT ( 'NONE',  ( -6.430220816073910100, -0.9054952256762541800, -0.5301120527490381700 ) ) ;
#200 = CARTESIAN_POINT ( 'NONE',  ( -5.782920891381861500, 4.407093329369351800E-018, 0.3499999999999999200 ) ) ;
#201 = DIRECTION ( 'NONE',  ( -1.000000000000000000, 0.0000000000000000000, 0.0000000000000000000 ) ) ;
#202 = DIRECTION ( 'NONE',  ( -1.000000000000000000, 0.0000000000000000000, 0.0000000000000000000 ) ) ;
#203 = CARTESIAN_POINT ( 'NONE',  ( -6.174643674650915200, -0.2090770714875594400, -0.3153353687875552500 ) ) ;
#204 = VERTEX_POINT ( 'NONE', #423 ) ;
#205 = CARTESIAN_POINT ( 'NONE',  ( -0.1255449471701533800, -0.7040164712801571000, -0.6288048910820729400 ) ) ;
#206 = CARTESIAN_POINT ( 'NONE',  ( -4.099999999999999600, -0.5250000000000000200, -0.5250000000000000200 ) ) ;
#207 = DIRECTION ( 'NONE',  ( -0.0004547108445916296400, 0.01041459057679355500, -0.9999456632943439800 ) ) ;
#208 = CARTESIAN_POINT ( 'NONE',  ( -5.782920891381861500, 0.09544815585309332500, -0.2201730064498009800 ) ) ;
#209 = DIRECTION ( 'NONE',  ( 1.000000000000000000, 2.689687323959279400E-017, 1.859947359092440600E-016 ) ) ;
#210 = VERTEX_POINT ( 'NONE', #416 ) ;
#211 = DIRECTION ( 'NONE',  ( 0.0000000000000000000, 0.0000000000000000000, 1.000000000000000000 ) ) ;
#212 = CARTESIAN_POINT ( 'NONE',  ( -5.200000000000000200, 0.0000000000000000000, 0.2500000000000000000 ) ) ;
#213 = CARTESIAN_POINT ( 'NONE',  ( -5.978782283016387900, -0.2477107695234199700, -0.3274081747190760200 ) ) ;
#214 = CARTESIAN_POINT ( 'NONE',  ( -5.200000000000000200, 0.0000000000000000000, -0.2500000000000000000 ) ) ;
#215 = DIRECTION ( 'NONE',  ( 0.0000000000000000000, -0.9544815585309331900, 0.2982699355019891000 ) ) ;
#216 = DIRECTION ( 'NONE',  ( 0.2023805367980216800, 0.9347304317168067000, -0.2920978232508018600 ) ) ;
#217 = CARTESIAN_POINT ( 'NONE',  ( -4.099999999999999600, 0.5249999999999985800, -0.7249999999999999800 ) ) ;
#218 = VERTEX_POINT ( 'NONE', #412 ) ;
#219 = CARTESIAN_POINT ( 'NONE',  ( 0.0000000000000000000, -8.983389429165630400E-016, 0.7249999999999999800 ) ) ;
#220 = VERTEX_POINT ( 'NONE', #398 ) ;
#221 = CARTESIAN_POINT ( 'NONE',  ( -6.704361938736533400, -0.7219197614970031000, 0.5000000000000011100 ) ) ;
#222 = DIRECTION ( 'NONE',  ( -0.0000000000000000000, -0.2982699355019891600, 0.9544815585309331900 ) ) ;
#223 = DIRECTION ( 'NONE',  ( -0.9990482215818578000, -0.04361938736533646500, 2.711210162625876700E-015 ) ) ;
#224 = CARTESIAN_POINT ( 'NONE',  ( -5.782920891381861500, -1.567874932420836500E-017, -0.2499999999999998900 ) ) ;
#225 = CARTESIAN_POINT ( 'NONE',  ( -4.099999999999999600, 0.0000000000000000000, 0.0000000000000000000 ) ) ;
#226 = CARTESIAN_POINT ( 'NONE',  ( -4.099999999999999600, 0.0000000000000000000, -0.6799999999999993800 ) ) ;
#227 = CARTESIAN_POINT ( 'NONE',  ( -5.782920891381861500, 0.09544815585309332500, 0.2201730064498009800 ) ) ;
#228 = CARTESIAN_POINT ( 'NONE',  ( -5.782920891381861500, 4.407093329369361100E-018, -0.1499999999999999100 ) ) ;
#229 = CARTESIAN_POINT ( 'NONE',  ( -0.1255518136625040900, 0.0000000000000000000, 0.0000000000000000000 ) ) ;
#230 = CARTESIAN_POINT ( 'NONE',  ( -6.700000000000000200, -0.8218245836551888500, 0.5000000000000008900 ) ) ;
#231 = DIRECTION ( 'NONE',  ( 0.0000000000000000000, 0.0000000000000000000, 1.000000000000000000 ) ) ;
#232 = VERTEX_POINT ( 'NONE', #404 ) ;
#233 = CARTESIAN_POINT ( 'NONE',  ( -6.153093091034400600, -0.5513420326129917500, -0.5270600962830875900 ) ) ;
#234 = CARTESIAN_POINT ( 'NONE',  ( -0.09822211262797753100, 0.7250000000000003100, -0.5250000000000040200 ) ) ;
#235 = CARTESIAN_POINT ( 'NONE',  ( -6.438742238907903600, -0.7103225549474093700, -0.5000000000000013300 ) ) ;
#236 = CARTESIAN_POINT ( 'NONE',  ( -0.09822211262797704600, -0.5250000000000044600, 0.7249999999999988700 ) ) ;
#237 = CARTESIAN_POINT ( 'NONE',  ( -0.04083689323177614600, -0.7249999999999999800, -0.3555329023686941700 ) ) ;
#238 = DIRECTION ( 'NONE',  ( -1.000000000000000000, 0.0000000000000000000, 0.0000000000000000000 ) ) ;
#239 = CARTESIAN_POINT ( 'NONE',  ( -6.076712978833652000, -0.2283939205054899000, 0.3213717717533155500 ) ) ;
#240 = CARTESIAN_POINT ( 'NONE',  ( -5.978782283016387900, -0.2477107695234199700, 0.3274081747190760200 ) ) ;
#241 = CARTESIAN_POINT ( 'NONE',  ( -0.09822211262773121500, 0.5249999999995430500, 0.7249999999999997600 ) ) ;
#242 = DIRECTION ( 'NONE',  ( -1.000000000000000000, 0.0000000000000000000, 0.0000000000000000000 ) ) ;
#243 = CARTESIAN_POINT ( 'NONE',  ( -0.09822211262768221200, -0.7249999999999999800, -0.5250000000005962100 ) ) ;
#244 = CARTESIAN_POINT ( 'NONE',  ( -5.782920891381861500, -1.567874932420836500E-017, 0.2499999999999998900 ) ) ;
#245 = SURFACE_STYLE_FILL_AREA ( #437 ) ;
#246 = VERTEX_POINT ( 'NONE', #399 ) ;
#247 = SURFACE_SIDE_STYLE ('',( #245 ) ) ;
#248 = DIRECTION ( 'NONE',  ( 0.0000000000000000000, -1.000000000000000000, -1.239088197126293800E-015 ) ) ;
#249 = SURFACE_STYLE_USAGE ( .BOTH. , #247 ) ;
#250 = CARTESIAN_POINT ( 'NONE',  ( -0.1255586728169067200, -0.6289065624973541000, -0.7039574772736354500 ) ) ;
#251 = PRESENTATION_STYLE_ASSIGNMENT (( #249 ) ) ;
#252 = VERTEX_POINT ( 'NONE', #391 ) ;
#253 = DIRECTION ( 'NONE',  ( 0.0000000000000000000, 0.0000000000000000000, -1.000000000000000000 ) ) ;
#254 = VERTEX_POINT ( 'NONE', #389 ) ;
#255 = CARTESIAN_POINT ( 'NONE',  ( -0.1255518136625040900, 0.0000000000000000000, 0.0000000000000000000 ) ) ;
#256 = VERTEX_POINT ( 'NONE', #392 ) ;
#257 =( LENGTH_UNIT ( ) NAMED_UNIT ( * ) SI_UNIT ( .MILLI., .METRE. ) );
#258 = VERTEX_POINT ( 'NONE', #386 ) ;
#259 = VERTEX_POINT ( 'NONE', #385 ) ;
#260 = VERTEX_POINT ( 'NONE', #383 ) ;
#261 = DIRECTION ( 'NONE',  ( 0.0000000000000000000, 0.0000000000000000000, 1.000000000000000000 ) ) ;
#262 = CARTESIAN_POINT ( 'NONE',  ( -0.09822211262797704600, -0.5250000000000044600, 0.7249999999999988700 ) ) ;
#263 =( NAMED_UNIT ( * ) PLANE_ANGLE_UNIT ( ) SI_UNIT ( $, .RADIAN. ) );
#264 = CARTESIAN_POINT ( 'NONE',  ( -0.04065173124090929600, -0.7250000000000002000, 0.3549860914385473700 ) ) ;
#265 = VERTEX_POINT ( 'NONE', #381 ) ;
#266 =( NAMED_UNIT ( * ) SI_UNIT ( $, .STERADIAN. ) SOLID_ANGLE_UNIT ( ) );
#267 = CARTESIAN_POINT ( 'NONE',  ( -6.076712978833652000, -0.2283939205054899000, 0.3213717717533155500 ) ) ;
#268 = DIRECTION ( 'NONE',  ( -1.000000000000000000, 0.0000000000000000000, 0.0000000000000000000 ) ) ;
#269 = VERTEX_POINT ( 'NONE', #373 ) ;
#270 = CARTESIAN_POINT ( 'NONE',  ( -4.099999999999999600, 0.5249999999999983600, 0.7249999999999997600 ) ) ;
#271 = CARTESIAN_POINT ( 'NONE',  ( 2.320824262651150200E-015, -0.7250000000000000900, 0.1795065434919560500 ) ) ;
#272 = CARTESIAN_POINT ( 'NONE',  ( 0.0000000000000000000, -0.7250000000000000900, -1.497231571527607800E-016 ) ) ;
#273 = DIRECTION ( 'NONE',  ( 0.0000000000000000000, -0.2982699355019882100, -0.9544815585309334200 ) ) ;
#274 = CARTESIAN_POINT ( 'NONE',  ( -6.446858752463750600, -0.5244238313936119300, 0.4096638417528898300 ) ) ;
#275 = DIRECTION ( 'NONE',  ( 0.0000000000000000000, 0.0000000000000000000, -1.000000000000000000 ) ) ;
#276 = VERTEX_POINT ( 'NONE', #376 ) ;
#277 = DIRECTION ( 'NONE',  ( 0.0000000000000000000, 0.0000000000000000000, 1.000000000000000000 ) ) ;
#278 = DIRECTION ( 'NONE',  ( -1.000000000000000000, 0.0000000000000000000, 0.0000000000000000000 ) ) ;
#279 = LINE ( 'NONE', #462, #978 ) ;
#280 = CARTESIAN_POINT ( 'NONE',  ( 2.193295706276834400E-015, -0.7250000000000000900, -0.1795847254817398200 ) ) ;
#281 = VERTEX_POINT ( 'NONE', #374 ) ;
#282 = DIRECTION ( 'NONE',  ( -0.2023805367980209300, -0.9347304317168072500, 0.2920978232508007500 ) ) ;
#283 = CARTESIAN_POINT ( 'NONE',  ( -0.09822211262768221200, -0.7249999999999999800, -0.5250000000005962100 ) ) ;
#284 = DIRECTION ( 'NONE',  ( 0.01313469293225410000, -0.3008339274710438200, -0.9535860883653463100 ) ) ;
#285 = CARTESIAN_POINT ( 'NONE',  ( -0.1154903239255084700, -0.7249999999998801800, -0.5759955992270664500 ) ) ;
#286 = DIRECTION ( 'NONE',  ( -1.000000000000000000, 0.0000000000000000000, 0.0000000000000000000 ) ) ;
#287 = VERTEX_POINT ( 'NONE', #367 ) ;
#288 = DIRECTION ( 'NONE',  ( 0.0000000000000000000, 0.0000000000000000000, 1.000000000000000000 ) ) ;
#289 = CARTESIAN_POINT ( 'NONE',  ( -6.434380300171370400, -0.8102273771055952300, 0.5000000000000013300 ) ) ;
#290 = DIRECTION ( 'NONE',  ( 0.04361938736533421000, -0.9990482215818578000, 0.0000000000000000000 ) ) ;
#291 = CARTESIAN_POINT ( 'NONE',  ( 2.736169374155083600E-015, -0.1795847254815949900, 0.7249999999999988700 ) ) ;
#292 = CARTESIAN_POINT ( 'NONE',  ( -6.695638061263466900, -0.9217294058133745900, 0.5000000000000011100 ) ) ;
#293 = DIRECTION ( 'NONE',  ( 1.000000000000000000, -0.0000000000000000000, -0.0000000000000000000 ) ) ;
#294 = CARTESIAN_POINT ( 'NONE',  ( 0.0000000000000000000, -0.7250000000000000900, -1.497231571527607800E-016 ) ) ;
#295 = CARTESIAN_POINT ( 'NONE',  ( -6.438742238907903600, -0.7103225549474093700, 0.5000000000000013300 ) ) ;
#296 = VERTEX_POINT ( 'NONE', #350 ) ;
#297 = CARTESIAN_POINT ( 'NONE',  ( -0.1154927761449821300, -0.5760028409961774900, -0.7249999999999992000 ) ) ;
#298 = CARTESIAN_POINT ( 'NONE',  ( -5.200000000000000200, 0.0000000000000000000, -0.6799999999999992700 ) ) ;
#299 = CARTESIAN_POINT ( 'NONE',  ( -4.099999999999999600, 0.7249999999999999800, -0.5249999999999985800 ) ) ;
#300 = CARTESIAN_POINT ( 'NONE',  ( -0.1255518136625040900, 0.0000000000000000000, 0.0000000000000000000 ) ) ;
#301 = CARTESIAN_POINT ( 'NONE',  ( -0.09822211262773097900, -0.7250000000000002000, 0.5249999999995418300 ) ) ;
#302 = CARTESIAN_POINT ( 'NONE',  ( -5.782920891381861500, -7.839374662104180800E-018, -0.3499999999999999200 ) ) ;
#303 = VERTEX_POINT ( 'NONE', #352 ) ;
#304 = CARTESIAN_POINT ( 'NONE',  ( -4.099999999999999600, 0.5249999999999983600, 0.7249999999999997600 ) ) ;
#305 = DIRECTION ( 'NONE',  ( 4.450207066274950100E-019, 0.9536683554215617000, -0.3008598807876082200 ) ) ;
#306 = PLANE ( 'NONE',  #1021 ) ;
#307 = CARTESIAN_POINT ( 'NONE',  ( -5.200000000000000200, -7.839374662104183900E-018, 0.1499999999999999900 ) ) ;
#308 = CARTESIAN_POINT ( 'NONE',  ( -5.200000000000000200, 4.407093329369351100E-018, -0.1499999999999999900 ) ) ;
#309 = DIRECTION ( 'NONE',  ( -0.9990482215818578000, -0.04361938736533493100, -8.155797577933111800E-016 ) ) ;
#310 = CARTESIAN_POINT ( 'NONE',  ( -6.700000000000000200, -0.8218245836551888500, -0.5000000000000008900 ) ) ;
#311 = CARTESIAN_POINT ( 'NONE',  ( 0.0000000000000000000, -0.7250000000000000900, -1.497231571527607800E-016 ) ) ;
#312 = DIRECTION ( 'NONE',  ( -0.0004547108445916296400, 0.01041459057679355500, 0.9999456632943439800 ) ) ;
#313 = DIRECTION ( 'NONE',  ( 1.000000000000000000, 2.689687323959279400E-017, -1.859947359092440600E-016 ) ) ;
#314 = DIRECTION ( 'NONE',  ( -0.9990482215818578000, -0.04361938736533646500, -2.711210162625876700E-015 ) ) ;
#315 = CARTESIAN_POINT ( 'NONE',  ( -5.782920891381861500, -0.09544815585309332500, 0.2798269935501987400 ) ) ;
#316 = DIRECTION ( 'NONE',  ( 0.0000000000000000000, 0.0000000000000000000, -1.000000000000000000 ) ) ;
#317 = CARTESIAN_POINT ( 'NONE',  ( -4.099999999999999600, -0.5249999999999990200, 0.7249999999999984200 ) ) ;
#318 = CARTESIAN_POINT ( 'NONE',  ( -5.782920891381861500, -1.567874932420836500E-017, -0.2499999999999998900 ) ) ;
#319 = VERTEX_POINT ( 'NONE', #342 ) ;
#320 = CARTESIAN_POINT ( 'NONE',  ( -6.438539784268830800, -0.7149595285349342700, 0.4698879472509643300 ) ) ;
#321 = CARTESIAN_POINT ( 'NONE',  ( -5.782920891381861500, -0.2863444675592799500, -0.3394809806505966200 ) ) ;
#322 = CARTESIAN_POINT ( 'NONE',  ( -6.430018361434837200, -0.9101321992637809700, 0.5000000000000013300 ) ) ;
#323 = VERTEX_POINT ( 'NONE', #360 ) ;
#324 = DIRECTION ( 'NONE',  ( 0.0000000000000000000, -0.9544815585309331900, -0.2982699355019891600 ) ) ;
#325 = CARTESIAN_POINT ( 'NONE',  ( -5.200000000000000200, -7.839374662104187000E-018, -0.3499999999999999800 ) ) ;
#326 = CARTESIAN_POINT ( 'NONE',  ( -4.099999999999999600, -0.7249999999999999800, -0.5249999999999985800 ) ) ;
#327 = DIRECTION ( 'NONE',  ( -0.2023805367980209300, -0.9347304317168072500, -0.2920978232508007500 ) ) ;
#328 = DIRECTION ( 'NONE',  ( -0.0000000000000000000, -0.2982699355019891600, 0.9544815585309331900 ) ) ;
#329 = CARTESIAN_POINT ( 'NONE',  ( -6.430018361434837200, -0.9101321992637809700, -0.5000000000000013300 ) ) ;
#330 = CARTESIAN_POINT ( 'NONE',  ( -5.200000000000000200, 4.407093329369353400E-018, 0.3499999999999999800 ) ) ;
#331 = DIRECTION ( 'NONE',  ( 0.0000000000000000000, 0.2982699355019879400, -0.9544815585309334200 ) ) ;
#332 = CARTESIAN_POINT ( 'NONE',  ( -5.200000000000000200, 0.0000000000000000000, 0.0000000000000000000 ) ) ;
#333 = CARTESIAN_POINT ( 'NONE',  ( -6.076712978833652000, -0.2283939205054899000, -0.3213717717533155500 ) ) ;
#334 = PLANE ( 'NONE',  #1037 ) ;
#335 = DIRECTION ( 'NONE',  ( -0.0000000000000000000, 1.000000000000000000, 0.0000000000000000000 ) ) ;
#336 = CARTESIAN_POINT ( 'NONE',  ( -6.446858752463750600, -0.5244238313936119300, 0.4096638417528898300 ) ) ;
#337 = CARTESIAN_POINT ( 'NONE',  ( -4.099999999999999600, 0.7249999999999999800, 0.5249999999999983600 ) ) ;
#338 = VERTEX_POINT ( 'NONE', #349 ) ;
#339 = DIRECTION ( 'NONE',  ( 0.01313469293225410000, -0.3008339274710438200, -0.9535860883653463100 ) ) ;
#340 = DIRECTION ( 'NONE',  ( 0.0000000000000000000, -0.9544815585309331900, -0.2982699355019892100 ) ) ;
#341 = DIRECTION ( 'NONE',  ( 0.0000000000000000000, -0.0000000000000000000, 1.000000000000000000 ) ) ;
#342 = CARTESIAN_POINT ( 'NONE',  ( -5.200000000000000200, 8.327598234201993200E-017, 0.6799999999999992700 ) ) ;
#343 = DIRECTION ( 'NONE',  ( 4.450207066274950100E-019, 0.9536683554215617000, -0.3008598807876082200 ) ) ;
#344 = DIRECTION ( 'NONE',  ( -0.2023805367980209300, -0.9347304317168072500, 0.2920978232508007500 ) ) ;
#345 = CARTESIAN_POINT ( 'NONE',  ( -4.099999999999999600, 8.327598234201994500E-017, 0.6799999999999993800 ) ) ;
#346 = DIRECTION ( 'NONE',  ( 0.0000000000000000000, -0.2982699355019882100, -0.9544815585309334200 ) ) ;
#347 = CARTESIAN_POINT ( 'NONE',  ( -6.076712978833652000, -0.2283939205054899000, 0.3213717717533155500 ) ) ;
#348 = CARTESIAN_POINT ( 'NONE',  ( -5.782920891381861500, -1.567874932420836500E-017, 0.2499999999999998900 ) ) ;
#349 = CARTESIAN_POINT ( 'NONE',  ( -6.704361938736533400, -0.7219197614970031000, -0.5000000000000011100 ) ) ;
#350 = CARTESIAN_POINT ( 'NONE',  ( -6.430220816073910100, -0.9054952256762541800, 0.5301120527490381700 ) ) ;
#351 = VERTEX_POINT ( 'NONE', #345 ) ;
#352 = CARTESIAN_POINT ( 'NONE',  ( -6.076712978833652000, -0.1985669269552909900, 0.4168199276064087900 ) ) ;
#353 = VERTEX_POINT ( 'NONE', #326 ) ;
#354 = DIRECTION ( 'NONE',  ( 1.000000000000000000, 2.689687323959279400E-017, 1.859947359092440600E-016 ) ) ;
#355 = VERTEX_POINT ( 'NONE', #329 ) ;
#356 = DIRECTION ( 'NONE',  ( 0.0000000000000000000, 0.0000000000000000000, -1.000000000000000000 ) ) ;
#357 = DIRECTION ( 'NONE',  ( -0.9990482215818578000, -0.04361938736533493100, -8.155797577933111800E-016 ) ) ;
#358 = CARTESIAN_POINT ( 'NONE',  ( -6.446858752463750600, -0.5244238313936119300, -0.4096638417528898300 ) ) ;
#359 = CARTESIAN_POINT ( 'NONE',  ( -6.434380300171370400, -0.8102273771055952300, 0.5000000000000013300 ) ) ;
#360 = CARTESIAN_POINT ( 'NONE',  ( -6.251014978177517300, -0.5622539612399979300, -0.4242959075376263000 ) ) ;
#361 = DIRECTION ( 'NONE',  ( -0.01313469293225410000, 0.3008339274710438200, -0.9535860883653463100 ) ) ;
#362 = DIRECTION ( 'NONE',  ( 0.04361938736533421000, -0.9990482215818578000, 0.0000000000000000000 ) ) ;
#363 = DIRECTION ( 'NONE',  ( 4.450207066274950100E-019, 0.9536683554215617000, 0.3008598807876082200 ) ) ;
#364 = PLANE ( 'NONE',  #1010 ) ;
#365 = PLANE ( 'NONE',  #1103 ) ;
#366 = CARTESIAN_POINT ( 'NONE',  ( -4.099999999999999600, 0.5249999999999983600, 0.7249999999999997600 ) ) ;
#367 = CARTESIAN_POINT ( 'NONE',  ( -6.055171203891283900, -0.6000840910863830500, -0.4389279733223623300 ) ) ;
#368 = DIRECTION ( 'NONE',  ( 0.0000000000000000000, 0.0000000000000000000, 1.000000000000000000 ) ) ;
#369 = DIRECTION ( 'NONE',  ( 0.0000000000000000000, -1.239088197126293800E-015, 1.000000000000000000 ) ) ;
#370 = DIRECTION ( 'NONE',  ( 0.0000000000000000000, -1.000000000000000000, -1.239088197126293800E-015 ) ) ;
#371 = DIRECTION ( 'NONE',  ( 0.0000000000000000000, 0.2982699355019891600, 0.9544815585309331900 ) ) ;
#372 = CARTESIAN_POINT ( 'NONE',  ( 0.9764491099811638500, 0.0000000000000000000, 0.0000000000000000000 ) ) ;
#373 = CARTESIAN_POINT ( 'NONE',  ( -5.782920891381861500, -1.567874932420836500E-017, 0.1499999999999999100 ) ) ;
#374 = CARTESIAN_POINT ( 'NONE',  ( 0.0000000000000000000, 0.7249999999999999800, 0.0000000000000000000 ) ) ;
#375 = CARTESIAN_POINT ( 'NONE',  ( -5.782920891381861500, -0.2863444675592799500, 0.3394809806505966200 ) ) ;
#376 = CARTESIAN_POINT ( 'NONE',  ( -6.438539784268830800, -0.7149595285349342700, -0.4698879472509643300 ) ) ;
#377 = DIRECTION ( 'NONE',  ( 1.000000000000000000, -0.0000000000000000000, -0.0000000000000000000 ) ) ;
#378 = DIRECTION ( 'NONE',  ( 0.0000000000000000000, -0.9544815585309331900, 0.2982699355019891600 ) ) ;
#379 = DIRECTION ( 'NONE',  ( 0.0000000000000000000, 0.0000000000000000000, -1.000000000000000000 ) ) ;
#380 = CARTESIAN_POINT ( 'NONE',  ( -4.099999999999999600, 0.5250000000000000200, 0.5249999999999998000 ) ) ;
#381 = CARTESIAN_POINT ( 'NONE',  ( -0.09822211262797747600, 0.7250000000000003100, 0.5250000000000038000 ) ) ;
#382 = DIRECTION ( 'NONE',  ( 1.000000000000000000, 0.0000000000000000000, 0.0000000000000000000 ) ) ;
#383 = CARTESIAN_POINT ( 'NONE',  ( -6.251014978177517300, -0.5622539612399979300, 0.4242959075376263000 ) ) ;
#384 = CARTESIAN_POINT ( 'NONE',  ( -4.099999999999999600, -0.5250000000000000200, 0.5249999999999984700 ) ) ;
#385 = CARTESIAN_POINT ( 'NONE',  ( -6.153093091034400600, -0.6109960197133894600, 0.3361637845769010500 ) ) ;
#386 = CARTESIAN_POINT ( 'NONE',  ( -0.09822211262773135300, 0.5249999999995432800, -0.7249999999999999800 ) ) ;
#387 = DIRECTION ( 'NONE',  ( 0.0000000000000000000, 0.0000000000000000000, -1.000000000000000000 ) ) ;
#388 = DIRECTION ( 'NONE',  ( 1.000000000000000000, 0.0000000000000000000, 0.0000000000000000000 ) ) ;
#389 = CARTESIAN_POINT ( 'NONE',  ( -4.099999999999999600, -0.7250000000000002000, 0.5249999999999970200 ) ) ;
#390 = DIRECTION ( 'NONE',  ( 0.0000000000000000000, 0.0000000000000000000, -1.000000000000000000 ) ) ;
#391 = CARTESIAN_POINT ( 'NONE',  ( -5.782920891381861500, -0.09544815585309332500, -0.2798269935501987400 ) ) ;
#392 = CARTESIAN_POINT ( 'NONE',  ( -6.695638061263466900, -0.9217294058133745900, -0.5000000000000011100 ) ) ;
#393 = CARTESIAN_POINT ( 'NONE',  ( -6.434380300171370400, -0.8102273771055952300, -0.5000000000000013300 ) ) ;
#394 = DIRECTION ( 'NONE',  ( 1.000000000000000000, 0.0000000000000000000, 0.0000000000000000000 ) ) ;
#395 = DIRECTION ( 'NONE',  ( -0.9990482215818578000, -0.04361938736533493100, 8.155797577933111800E-016 ) ) ;
#396 = DIRECTION ( 'NONE',  ( 0.04361938736533421000, -0.9990482215818578000, 0.0000000000000000000 ) ) ;
#397 = CARTESIAN_POINT ( 'NONE',  ( -4.099999999999999600, 0.5250000000000000200, -0.5250000000000000200 ) ) ;
#398 = CARTESIAN_POINT ( 'NONE',  ( -6.055171203891283900, -0.6000840910863830500, 0.4389279733223623300 ) ) ;
#399 = CARTESIAN_POINT ( 'NONE',  ( -6.076712978833652000, -0.2582209140556888100, -0.2259236159002222200 ) ) ;
#400 = DIRECTION ( 'NONE',  ( 1.000000000000000000, 0.0000000000000000000, 0.0000000000000000000 ) ) ;
#401 = DIRECTION ( 'NONE',  ( 0.0000000000000000000, 0.0000000000000000000, -1.000000000000000000 ) ) ;
#402 = DIRECTION ( 'NONE',  ( 0.9990482215818578000, 0.04361938736533650000, -2.761679773755077700E-015 ) ) ;
#403 = CARTESIAN_POINT ( 'NONE',  ( -6.153093091034400600, -0.5811690261631906600, -0.4316119404299943500 ) ) ;
#404 = CARTESIAN_POINT ( 'NONE',  ( 0.0000000000000000000, 0.0000000000000000000, -0.7249999999999999800 ) ) ;
#405 = CARTESIAN_POINT ( 'NONE',  ( -6.434380300171370400, -0.8102273771055952300, 0.5000000000000013300 ) ) ;
#406 = DIRECTION ( 'NONE',  ( -0.2023805367980216800, -0.9347304317168067000, -0.2920978232508018600 ) ) ;
#407 = CARTESIAN_POINT ( 'NONE',  ( 0.0000000000000000000, -0.5250000000000000200, 0.5249999999999984700 ) ) ;
#408 = DIRECTION ( 'NONE',  ( -0.0004547108445936836100, 0.01041459057679367000, -0.9999456632943439800 ) ) ;
#409 = DIRECTION ( 'NONE',  ( -0.2920978232508024700, -0.2270767997940618400, 0.9290398208082527600 ) ) ;
#410 = CARTESIAN_POINT ( 'NONE',  ( -5.782920891381861500, -0.2863444675592799500, -0.3394809806505966200 ) ) ;
#411 = DIRECTION ( 'NONE',  ( -0.0000000000000000000, -0.2982699355019891600, 0.9544815585309331900 ) ) ;
#412 = CARTESIAN_POINT ( 'NONE',  ( -6.076712978833652000, -0.2582209140556888100, 0.2259236159002222200 ) ) ;
#413 = DIRECTION ( 'NONE',  ( 0.0000000000000000000, -0.9544815585309331900, -0.2982699355019891000 ) ) ;
#414 = CARTESIAN_POINT ( 'NONE',  ( -5.782920891381861500, -1.567874932420836500E-017, -0.2499999999999998900 ) ) ;
#415 = DIRECTION ( 'NONE',  ( -1.000000000000000000, 0.0000000000000000000, 0.0000000000000000000 ) ) ;
#416 = CARTESIAN_POINT ( 'NONE',  ( -4.099999999999999600, -0.5249999999999985800, -0.7249999999999999800 ) ) ;
#417 = DIRECTION ( 'NONE',  ( 0.0000000000000000000, 0.0000000000000000000, 1.000000000000000000 ) ) ;
#418 = CARTESIAN_POINT ( 'NONE',  ( -0.1255518136625040900, 0.0000000000000000000, 0.0000000000000000000 ) ) ;
#419 = CARTESIAN_POINT ( 'NONE',  ( -6.076712978833652000, -0.2283939205054899000, -0.3213717717533155500 ) ) ;
#420 = CARTESIAN_POINT ( 'NONE',  ( -6.153093091034400600, -0.6109960197133894600, -0.3361637845769010500 ) ) ;
#421 = LINE ( 'NONE', #426, #1084 ) ;
#422 = VERTEX_POINT ( 'NONE', #320 ) ;
#423 = CARTESIAN_POINT ( 'NONE',  ( -4.099999999999999600, 0.7249999999999999800, 0.5249999999999983600 ) ) ;
#424 = DIRECTION ( 'NONE',  ( -0.2023805367980209000, -0.9347304317168071400, -0.2920978232508006900 ) ) ;
#425 = DIRECTION ( 'NONE',  ( -0.2920978232508023600, -0.2270767997940622800, 0.9290398208082526500 ) ) ;
#426 = CARTESIAN_POINT ( 'NONE',  ( -6.076712978833652000, -0.2582209140556887000, -0.2259236159002222000 ) ) ;
#427 = CARTESIAN_POINT ( 'NONE',  ( -5.782920891381861500, -0.2863444675592799500, 0.3394809806505966200 ) ) ;
#428 = CARTESIAN_POINT ( 'NONE',  ( -0.09822211262797753100, -0.5250000000000040200, -0.7250000000000003100 ) ) ;
#429 = VERTEX_POINT ( 'NONE', #330 ) ;
#430 = VERTEX_POINT ( 'NONE', #325 ) ;
#431 = DIRECTION ( 'NONE',  ( 0.0000000000000000000, -0.9544815585309331900, 0.2982699355019891600 ) ) ;
#432 = CARTESIAN_POINT ( 'NONE',  ( 0.0000000000000000000, -8.983389429165630400E-016, 0.7249999999999999800 ) ) ;
#433 = VERTEX_POINT ( 'NONE', #317 ) ;
#434 = VERTEX_POINT ( 'NONE', #307 ) ;
#435 = VERTEX_POINT ( 'NONE', #322 ) ;
#436 = DIRECTION ( 'NONE',  ( -0.2920978232508023600, -0.2270767997940622800, -0.9290398208082526500 ) ) ;
#437 = FILL_AREA_STYLE ('',( #464 ) ) ;
#438 = DIRECTION ( 'NONE',  ( -0.2023805367980216800, -0.9347304317168067000, -0.2920978232508018600 ) ) ;
#439 = VERTEX_POINT ( 'NONE', #311 ) ;
#440 = DIRECTION ( 'NONE',  ( 0.0000000000000000000, 0.2982699355019891600, 0.9544815585309331900 ) ) ;
#441 = VERTEX_POINT ( 'NONE', #315 ) ;
#442 = CARTESIAN_POINT ( 'NONE',  ( -5.782920891381861500, -1.567874932420836500E-017, 0.2499999999999998900 ) ) ;
#443 = DIRECTION ( 'NONE',  ( -0.9990482215818578000, -0.04361938736533650000, -2.761679773755077700E-015 ) ) ;
#444 = VERTEX_POINT ( 'NONE', #308 ) ;
#445 = CARTESIAN_POINT ( 'NONE',  ( -6.434380300171370400, -0.8102273771055952300, -0.5000000000000013300 ) ) ;
#446 = CARTESIAN_POINT ( 'NONE',  ( -6.153093091034400600, -0.5513420326129917500, 0.5270600962830875900 ) ) ;
#447 = LINE ( 'NONE', #270, #1166 ) ;
#448 = VERTEX_POINT ( 'NONE', #304 ) ;
#449 = DIRECTION ( 'NONE',  ( -1.000000000000000000, 0.0000000000000000000, 0.0000000000000000000 ) ) ;
#450 = DIRECTION ( 'NONE',  ( 0.0000000000000000000, 0.0000000000000000000, -1.000000000000000000 ) ) ;
#451 = DIRECTION ( 'NONE',  ( -0.0004547108445936836100, 0.01041459057679367000, 0.9999456632943439800 ) ) ;
#452 = DIRECTION ( 'NONE',  ( 0.0000000000000000000, 0.0000000000000000000, 1.000000000000000000 ) ) ;
#453 = DIRECTION ( 'NONE',  ( 1.000000000000000000, -0.0000000000000000000, -0.0000000000000000000 ) ) ;
#454 = CARTESIAN_POINT ( 'NONE',  ( -6.174643674650915200, -0.2090770714875594400, 0.3153353687875552500 ) ) ;
#455 = VERTEX_POINT ( 'NONE', #299 ) ;
#456 = VERTEX_POINT ( 'NONE', #301 ) ;
#457 = CARTESIAN_POINT ( 'NONE',  ( -0.04083689323170847800, -0.3555329023684096800, 0.7249999999999986500 ) ) ;
#458 = DIRECTION ( 'NONE',  ( 0.0000000000000000000, 0.2982699355019891600, 0.9544815585309331900 ) ) ;
#459 = VERTEX_POINT ( 'NONE', #298 ) ;
#460 = DIRECTION ( 'NONE',  ( 0.0000000000000000000, 2.065146995210493300E-016, -1.000000000000000000 ) ) ;
#461 = CARTESIAN_POINT ( 'NONE',  ( -5.782920891381861500, -0.2863444675592799500, -0.3394809806505966200 ) ) ;
#462 = CARTESIAN_POINT ( 'NONE',  ( -4.099999999999999600, -0.7250000000000002000, 0.5249999999999970200 ) ) ;
#463 = DIRECTION ( 'NONE',  ( 0.0000000000000000000, 0.0000000000000000000, -1.000000000000000000 ) ) ;
#464 = FILL_AREA_STYLE_COLOUR ( '', #798 ) ;
#465 = CARTESIAN_POINT ( 'NONE',  ( -0.09822211262773097900, -0.7250000000000002000, 0.5249999999995418300 ) ) ;
#466 = CARTESIAN_POINT ( 'NONE',  ( -5.782920891381861500, -0.2863444675592799500, 0.3394809806505966200 ) ) ;
#467 = CARTESIAN_POINT ( 'NONE',  ( -0.09822211262768221200, -0.7249999999999999800, -0.5250000000005962100 ) ) ;
#468 = VERTEX_POINT ( 'NONE', #302 ) ;
#469 = CARTESIAN_POINT ( 'NONE',  ( -0.09822211262797753100, -0.5250000000000040200, -0.7250000000000003100 ) ) ;
#470 = ADVANCED_BREP_SHAPE_REPRESENTATION ( 'AB26TRQ', ( #838, #1118 ), #852 ) ;
#471 = UNCERTAINTY_MEASURE_WITH_UNIT (LENGTH_MEASURE( 1.000000000000000100E-005 ), #1246, 'distance_accuracy_value', 'NONE');
#472 = DIRECTION ( 'NONE',  ( -0.9990482215818578000, -0.04361938736533493100, 8.155797577933111800E-016 ) ) ;
#473 = LINE ( 'NONE', #474, #1015 ) ;
#474 = CARTESIAN_POINT ( 'NONE',  ( -6.430018361434837200, -0.9101321992637809700, -0.5000000000000013300 ) ) ;
#475 = CARTESIAN_POINT ( 'NONE',  ( -0.09822211262773135300, 0.5249999999995432800, -0.7249999999999999800 ) ) ;
#476 = LINE ( 'NONE', #492, #1035 ) ;
#477 = LINE ( 'NONE', #528, #1105 ) ;
#478 = DIRECTION ( 'NONE',  ( 0.2023805367980216800, 0.9347304317168067000, -0.2920978232508018600 ) ) ;
#479 = DIRECTION ( 'NONE',  ( -1.000000000000000000, 0.0000000000000000000, 0.0000000000000000000 ) ) ;
#480 = CARTESIAN_POINT ( 'NONE',  ( -0.09822211262797704600, -0.5250000000000044600, 0.7249999999999988700 ) ) ;
#481 = CARTESIAN_POINT ( 'NONE',  ( -0.1255586728169050300, -0.7039574772737567900, 0.6289065624972274300 ) ) ;
#482 = CARTESIAN_POINT ( 'NONE',  ( -0.04065173124090942100, 0.3549860914385484200, -0.7249999999999999800 ) ) ;
#483 = DIRECTION ( 'NONE',  ( -0.2023805367980216800, -0.9347304317168067000, -0.2920978232508018600 ) ) ;
#484 = DIRECTION ( 'NONE',  ( -0.01313469293225410400, 0.3008339274710438700, -0.9535860883653465300 ) ) ;
#485 = CARTESIAN_POINT ( 'NONE',  ( -0.1154927761449203000, -0.7250000000001226600, 0.5760028409958553000 ) ) ;
#486 = CARTESIAN_POINT ( 'NONE',  ( -0.09822211262773097900, -0.7250000000000002000, 0.5249999999995418300 ) ) ;
#487 = CARTESIAN_POINT ( 'NONE',  ( -6.700000000000000200, -0.8218245836551888500, -0.5000000000000011100 ) ) ;
#488 = CARTESIAN_POINT ( 'NONE',  ( -0.1255449471701538500, -0.6288048910819653600, 0.7040164712802669000 ) ) ;
#489 = LINE ( 'NONE', #494, #979 ) ;
#490 = DIRECTION ( 'NONE',  ( 1.000000000000000000, 0.0000000000000000000, 0.0000000000000000000 ) ) ;
#491 = CARTESIAN_POINT ( 'NONE',  ( -0.1154903239254511400, -0.5759955992267650200, 0.7249999999999975400 ) ) ;
#492 = CARTESIAN_POINT ( 'NONE',  ( -4.099999999999999600, -0.5249999999999990200, 0.7249999999999984200 ) ) ;
#493 = CARTESIAN_POINT ( 'NONE',  ( -6.153093091034400600, -0.5811690261631906600, -0.4316119404299943500 ) ) ;
#494 = CARTESIAN_POINT ( 'NONE',  ( -4.099999999999999600, 0.7249999999999999800, 0.5249999999999983600 ) ) ;
#495 = CARTESIAN_POINT ( 'NONE',  ( -6.446858752463750600, -0.5244238313936119300, -0.4096638417528898300 ) ) ;
#496 = DIRECTION ( 'NONE',  ( 1.000000000000000000, 0.0000000000000000000, 0.0000000000000000000 ) ) ;
#497 = DIRECTION ( 'NONE',  ( 0.0000000000000000000, 0.9536683554215615900, 0.3008598807876081700 ) ) ;
#498 = DIRECTION ( 'NONE',  ( -0.9990482215818578000, -0.04361938736533650000, -2.761679773755077700E-015 ) ) ;
#499 = DIRECTION ( 'NONE',  ( -0.2920978232508024700, -0.2270767997940618400, 0.9290398208082527600 ) ) ;
#500 = DIRECTION ( 'NONE',  ( 0.0000000000000000000, 0.0000000000000000000, 1.000000000000000000 ) ) ;
#501 = DIRECTION ( 'NONE',  ( -1.000000000000000000, 0.0000000000000000000, 0.0000000000000000000 ) ) ;
#502 = CARTESIAN_POINT ( 'NONE',  ( -4.099999999999999600, 0.0000000000000000000, 0.0000000000000000000 ) ) ;
#503 = DIRECTION ( 'NONE',  ( -0.0004547108445936836100, 0.01041459057679367000, 0.9999456632943439800 ) ) ;
#504 = DIRECTION ( 'NONE',  ( 0.0000000000000000000, 0.0000000000000000000, 1.000000000000000000 ) ) ;
#505 = DIRECTION ( 'NONE',  ( 1.000000000000000000, 0.0000000000000000000, 0.0000000000000000000 ) ) ;
#506 = CARTESIAN_POINT ( 'NONE',  ( -4.099999999999999600, 0.5250000000000000200, 0.5249999999999998000 ) ) ;
#507 = CARTESIAN_POINT ( 'NONE',  ( 0.0000000000000000000, 0.0000000000000000000, -0.7249999999999999800 ) ) ;
#508 = DIRECTION ( 'NONE',  ( 1.000000000000000000, 0.0000000000000000000, 0.0000000000000000000 ) ) ;
#509 = DIRECTION ( 'NONE',  ( 0.9990482215818578000, 0.04361938736533650000, -2.761679773755077700E-015 ) ) ;
#510 = LINE ( 'NONE', #564, #1154 ) ;
#511 = CARTESIAN_POINT ( 'NONE',  ( -6.434380300171370400, -0.8102273771055952300, -0.5000000000000013300 ) ) ;
#512 = CARTESIAN_POINT ( 'NONE',  ( -4.099999999999999600, -0.5250000000000000200, 0.5249999999999984700 ) ) ;
#513 = DIRECTION ( 'NONE',  ( -0.9990482215818578000, -0.04361938736533650000, -2.761679773755077700E-015 ) ) ;
#514 = DIRECTION ( 'NONE',  ( -0.0000000000000000000, 1.000000000000000000, -0.0000000000000000000 ) ) ;
#515 = DIRECTION ( 'NONE',  ( -0.0004547108445936836100, 0.01041459057679367000, 0.9999456632943439800 ) ) ;
#516 = DIRECTION ( 'NONE',  ( -0.0004547108445936836100, 0.01041459057679367000, 0.9999456632943439800 ) ) ;
#517 = DIRECTION ( 'NONE',  ( 1.000000000000000000, 0.0000000000000000000, 0.0000000000000000000 ) ) ;
#518 = DIRECTION ( 'NONE',  ( -0.9990482215818578000, -0.04361938736533650000, -2.761679773755077700E-015 ) ) ;
#519 = CARTESIAN_POINT ( 'NONE',  ( -6.153093091034400600, -0.5811690261631906600, -0.4316119404299943500 ) ) ;
#520 = DIRECTION ( 'NONE',  ( 0.9990482215818578000, 0.04361938736533650000, -2.761679773755077700E-015 ) ) ;
#521 = DIRECTION ( 'NONE',  ( -0.2023805367980216800, -0.9347304317168067000, -0.2920978232508018600 ) ) ;
#522 = CARTESIAN_POINT ( 'NONE',  ( -6.076712978833652000, -0.2283939205054899000, -0.3213717717533155500 ) ) ;
#523 = DIRECTION ( 'NONE',  ( -0.2023805367980209000, -0.9347304317168071400, -0.2920978232508006900 ) ) ;
#524 = DIRECTION ( 'NONE',  ( -0.9990482215818578000, -0.04361938736533493100, -8.155797577933111800E-016 ) ) ;
#525 = CARTESIAN_POINT ( 'NONE',  ( 0.9764491099811638500, 0.0000000000000000000, -0.6799999999999993800 ) ) ;
#526 = CARTESIAN_POINT ( 'NONE',  ( -6.434380300171370400, -0.8102273771055952300, 0.5000000000000013300 ) ) ;
#527 = DIRECTION ( 'NONE',  ( -0.2920978232508023600, -0.2270767997940622800, 0.9290398208082526500 ) ) ;
#528 = CARTESIAN_POINT ( 'NONE',  ( -4.099999999999999600, -0.7249999999999999800, -0.5249999999999985800 ) ) ;
#529 = CARTESIAN_POINT ( 'NONE',  ( 0.0000000000000000000, 0.0000000000000000000, 0.0000000000000000000 ) ) ;
#530 = CARTESIAN_POINT ( 'NONE',  ( -6.076712978833652000, -0.1985669269552911000, -0.4168199276064088500 ) ) ;
#531 = DIRECTION ( 'NONE',  ( -0.2920978232508024700, -0.2270767997940618400, 0.9290398208082527600 ) ) ;
#532 = LINE ( 'NONE', #578, #1151 ) ;
#533 = LINE ( 'NONE', #540, #993 ) ;
#534 = DIRECTION ( 'NONE',  ( 1.000000000000000000, -0.0000000000000000000, -0.0000000000000000000 ) ) ;
#535 = DIRECTION ( 'NONE',  ( -0.2023805367980216800, -0.9347304317168067000, -0.2920978232508018600 ) ) ;
#536 = DIRECTION ( 'NONE',  ( -0.2023805367980216800, -0.9347304317168067000, -0.2920978232508018600 ) ) ;
#537 = DIRECTION ( 'NONE',  ( 1.000000000000000000, 0.0000000000000000000, 0.0000000000000000000 ) ) ;
#538 = CARTESIAN_POINT ( 'NONE',  ( -6.076712978833652000, -0.2283939205054899000, -0.3213717717533155500 ) ) ;
#539 = CARTESIAN_POINT ( 'NONE',  ( -4.099999999999999600, 0.5249999999999983600, 0.7249999999999997600 ) ) ;
#540 = CARTESIAN_POINT ( 'NONE',  ( -4.099999999999999600, 0.5249999999999985800, -0.7249999999999999800 ) ) ;
#541 = DIRECTION ( 'NONE',  ( 0.0000000000000000000, 0.0000000000000000000, 1.000000000000000000 ) ) ;
#542 = CARTESIAN_POINT ( 'NONE',  ( -6.153093091034400600, -0.5811690261631906600, -0.4316119404299943500 ) ) ;
#543 = DIRECTION ( 'NONE',  ( 1.000000000000000000, -0.0000000000000000000, -0.0000000000000000000 ) ) ;
#544 = DIRECTION ( 'NONE',  ( -0.2920978232508023600, -0.2270767997940622800, 0.9290398208082526500 ) ) ;
#545 = CARTESIAN_POINT ( 'NONE',  ( -6.434380300171370400, -0.8102273771055952300, -0.5000000000000013300 ) ) ;
#546 = DIRECTION ( 'NONE',  ( 1.000000000000000000, 0.0000000000000000000, 0.0000000000000000000 ) ) ;
#547 = LINE ( 'NONE', #552, #1008 ) ;
#548 = DIRECTION ( 'NONE',  ( -0.2920978232508024700, -0.2270767997940618400, 0.9290398208082527600 ) ) ;
#549 = LINE ( 'NONE', #555, #991 ) ;
#550 = DIRECTION ( 'NONE',  ( 1.000000000000000000, 0.0000000000000000000, 0.0000000000000000000 ) ) ;
#551 = DIRECTION ( 'NONE',  ( -0.2023805367980216800, -0.9347304317168067000, -0.2920978232508018600 ) ) ;
#552 = CARTESIAN_POINT ( 'NONE',  ( -4.099999999999999600, 0.5249999999999985800, -0.7249999999999999800 ) ) ;
#553 = DIRECTION ( 'NONE',  ( 0.0000000000000000000, 0.0000000000000000000, -1.000000000000000000 ) ) ;
#554 = DIRECTION ( 'NONE',  ( 0.0000000000000000000, 0.0000000000000000000, -1.000000000000000000 ) ) ;
#555 = CARTESIAN_POINT ( 'NONE',  ( -4.099999999999999600, -0.7250000000000002000, 0.5249999999999970200 ) ) ;
#556 = LINE ( 'NONE', #579, #989 ) ;
#557 = CARTESIAN_POINT ( 'NONE',  ( -0.09822211262797753100, 0.7250000000000003100, -0.5250000000000040200 ) ) ;
#558 = CARTESIAN_POINT ( 'NONE',  ( -5.200000000000000200, 0.0000000000000000000, -0.2500000000000000000 ) ) ;
#559 = DIRECTION ( 'NONE',  ( -0.0004547108445936836100, 0.01041459057679367000, 0.9999456632943439800 ) ) ;
#560 = CARTESIAN_POINT ( 'NONE',  ( -0.1154927761450357100, 0.7249999999999990900, -0.5760028409963358100 ) ) ;
#561 = CARTESIAN_POINT ( 'NONE',  ( -0.1255449471700935100, 0.6288048910815116100, -0.7040164712805325700 ) ) ;
#562 = DIRECTION ( 'NONE',  ( -0.9990482215818578000, -0.04361938736533493100, 8.155797577933111800E-016 ) ) ;
#563 = CARTESIAN_POINT ( 'NONE',  ( 0.0000000000000000000, -8.983389429165630400E-016, 0.7249999999999999800 ) ) ;
#564 = CARTESIAN_POINT ( 'NONE',  ( -6.438742238907903600, -0.7103225549474093700, -0.5000000000000013300 ) ) ;
#565 = CARTESIAN_POINT ( 'NONE',  ( -0.04065173124090901100, 0.3549860914385477000, 0.7249999999999995300 ) ) ;
#566 = CARTESIAN_POINT ( 'NONE',  ( -0.09822211262773121500, 0.5249999999995430500, 0.7249999999999997600 ) ) ;
#567 = DIRECTION ( 'NONE',  ( 0.01313469293225410400, -0.3008339274710438700, -0.9535860883653465300 ) ) ;
#568 = CARTESIAN_POINT ( 'NONE',  ( 2.778908468082329100E-015, 0.1795065434919562400, 0.7249999999999993100 ) ) ;
#569 = CARTESIAN_POINT ( 'NONE',  ( -6.446858752463750600, -0.5244238313936119300, 0.4096638417528898300 ) ) ;
#570 = DIRECTION ( 'NONE',  ( -0.2920978232508023600, -0.2270767997940622800, -0.9290398208082526500 ) ) ;
#571 = DIRECTION ( 'NONE',  ( 0.2023805367980216800, 0.9347304317168067000, -0.2920978232508018600 ) ) ;
#572 = CARTESIAN_POINT ( 'NONE',  ( -4.099999999999999600, 0.7249999999999999800, -0.5249999999999985800 ) ) ;
#573 = CARTESIAN_POINT ( 'NONE',  ( -5.782920891381861500, -1.567874932420836500E-017, -0.2499999999999998900 ) ) ;
#574 = LINE ( 'NONE', #572, #1156 ) ;
#575 = DIRECTION ( 'NONE',  ( -0.0004547108445936836100, 0.01041459057679367000, -0.9999456632943439800 ) ) ;
#576 = DIRECTION ( 'NONE',  ( -1.000000000000000000, 0.0000000000000000000, 0.0000000000000000000 ) ) ;
#577 = DIRECTION ( 'NONE',  ( 1.000000000000000000, 2.689687323959279400E-017, -1.859947359092440600E-016 ) ) ;
#578 = CARTESIAN_POINT ( 'NONE',  ( -6.430018361434837200, -0.9101321992637809700, 0.5000000000000013300 ) ) ;
#579 = CARTESIAN_POINT ( 'NONE',  ( -5.782920891381861500, -3.432281332734831300E-018, -0.1499999999999999100 ) ) ;
#580 = DIRECTION ( 'NONE',  ( -0.9990482215818578000, -0.04361938736533493100, -8.155797577933111800E-016 ) ) ;
#581 = CARTESIAN_POINT ( 'NONE',  ( -6.438742238907903600, -0.7103225549474093700, 0.5000000000000013300 ) ) ;
#582 = DIRECTION ( 'NONE',  ( -0.0000000000000000000, -0.0000000000000000000, 1.000000000000000000 ) ) ;
#583 = LINE ( 'NONE', #581, #1152 ) ;
#584 = CARTESIAN_POINT ( 'NONE',  ( -4.099999999999999600, 0.7249999999999999800, 0.5249999999999983600 ) ) ;
#585 = CARTESIAN_POINT ( 'NONE',  ( -4.099999999999999600, 0.5250000000000000200, -0.5250000000000000200 ) ) ;
#586 = DIRECTION ( 'NONE',  ( 0.0000000000000000000, 0.0000000000000000000, 1.000000000000000000 ) ) ;
#587 = LINE ( 'NONE', #584, #1068 ) ;
#588 = DIRECTION ( 'NONE',  ( -0.0004547108445936836100, 0.01041459057679367000, -0.9999456632943439800 ) ) ;
#589 = CARTESIAN_POINT ( 'NONE',  ( -6.700000000000000200, -0.8218245836551888500, 0.5000000000000011100 ) ) ;
#590 = CARTESIAN_POINT ( 'NONE',  ( -6.434380300171370400, -0.8102273771055952300, -0.5000000000000013300 ) ) ;
#591 = CARTESIAN_POINT ( 'NONE',  ( -6.076712978833652000, -0.2283939205054899000, 0.3213717717533155500 ) ) ;
#592 = CARTESIAN_POINT ( 'NONE',  ( -6.153093091034400600, -0.5811690261631906600, 0.4316119404299943500 ) ) ;
#593 = CARTESIAN_POINT ( 'NONE',  ( -0.1154903239253371500, 0.5759955992262870700, -0.7250000000001223200 ) ) ;
#594 = DIRECTION ( 'NONE',  ( 0.0000000000000000000, 0.0000000000000000000, 1.000000000000000000 ) ) ;
#595 = DIRECTION ( 'NONE',  ( -1.000000000000000000, 0.0000000000000000000, 0.0000000000000000000 ) ) ;
#596 = DIRECTION ( 'NONE',  ( 0.0000000000000000000, 0.0000000000000000000, 1.000000000000000000 ) ) ;
#597 = CARTESIAN_POINT ( 'NONE',  ( -0.1255586728169663700, 0.7039574772734971100, -0.6289065624976777300 ) ) ;
#598 = CARTESIAN_POINT ( 'NONE',  ( -6.076712978833652000, -0.1985669269552911000, 0.4168199276064088500 ) ) ;
#599 = CARTESIAN_POINT ( 'NONE',  ( 0.0000000000000000000, 0.0000000000000000000, -0.7249999999999999800 ) ) ;
#600 = LINE ( 'NONE', #598, #1128 ) ;
#601 = CARTESIAN_POINT ( 'NONE',  ( 2.190660131763644100E-015, -0.1795847254815942700, -0.7249999999999999800 ) ) ;
#602 = CARTESIAN_POINT ( 'NONE',  ( -0.09822211262773135300, 0.5249999999995432800, -0.7249999999999999800 ) ) ;
#603 = DIRECTION ( 'NONE',  ( -0.2920978232508024700, -0.2270767997940618400, -0.9290398208082527600 ) ) ;
#604 = CARTESIAN_POINT ( 'NONE',  ( -0.09822211262797753100, -0.5250000000000040200, -0.7250000000000003100 ) ) ;
#605 = DIRECTION ( 'NONE',  ( -0.2023805367980209000, -0.9347304317168071400, 0.2920978232508006900 ) ) ;
#606 = DIRECTION ( 'NONE',  ( 0.0000000000000000000, 0.0000000000000000000, -1.000000000000000000 ) ) ;
#607 = CARTESIAN_POINT ( 'NONE',  ( -0.04083689323170895000, -0.3555329023684089500, -0.7249999999999999800 ) ) ;
#608 = CARTESIAN_POINT ( 'NONE',  ( -6.153093091034400600, -0.5811690261631906600, 0.4316119404299943500 ) ) ;
#609 = CARTESIAN_POINT ( 'NONE',  ( -5.200000000000000200, 0.0000000000000000000, 0.0000000000000000000 ) ) ;
#610 = DIRECTION ( 'NONE',  ( -1.000000000000000000, 0.0000000000000000000, 0.0000000000000000000 ) ) ;
#611 = DIRECTION ( 'NONE',  ( 1.000000000000000000, 2.689687323959279400E-017, -1.859947359092440600E-016 ) ) ;
#612 = DIRECTION ( 'NONE',  ( 1.000000000000000000, -0.0000000000000000000, -0.0000000000000000000 ) ) ;
#613 = CARTESIAN_POINT ( 'NONE',  ( -5.782920891381861500, -1.567874932420836500E-017, -0.3499999999999998700 ) ) ;
#614 = DIRECTION ( 'NONE',  ( 1.000000000000000000, 2.689687323959279400E-017, 1.859947359092440600E-016 ) ) ;
#615 = DIRECTION ( 'NONE',  ( 0.0000000000000000000, 0.0000000000000000000, 1.000000000000000000 ) ) ;
#616 = DIRECTION ( 'NONE',  ( 0.2023805367980216800, 0.9347304317168067000, -0.2920978232508018600 ) ) ;
#617 = DIRECTION ( 'NONE',  ( -0.2023805367980209000, -0.9347304317168071400, 0.2920978232508006900 ) ) ;
#618 = CARTESIAN_POINT ( 'NONE',  ( -5.200000000000000200, 0.0000000000000000000, 0.2500000000000000000 ) ) ;
#619 = DIRECTION ( 'NONE',  ( -0.2920978232508023600, -0.2270767997940622800, -0.9290398208082526500 ) ) ;
#620 = CARTESIAN_POINT ( 'NONE',  ( -5.782920891381861500, -3.432281332734831300E-018, 0.3499999999999998700 ) ) ;
#621 = DIRECTION ( 'NONE',  ( 0.2023805367980216800, 0.9347304317168067000, -0.2920978232508018600 ) ) ;
#622 = CARTESIAN_POINT ( 'NONE',  ( -6.076712978833652000, -0.2283939205054899000, 0.3213717717533155500 ) ) ;
#623 = DIRECTION ( 'NONE',  ( 1.000000000000000000, -0.0000000000000000000, -0.0000000000000000000 ) ) ;
#624 = DIRECTION ( 'NONE',  ( -1.000000000000000000, 0.0000000000000000000, 0.0000000000000000000 ) ) ;
#625 = LINE ( 'NONE', #620, #1018 ) ;
#626 = CARTESIAN_POINT ( 'NONE',  ( -5.782920891381861500, -1.567874932420836500E-017, -0.2499999999999998900 ) ) ;
#627 = CARTESIAN_POINT ( 'NONE',  ( -5.782920891381861500, -1.567874932420836500E-017, 0.2499999999999998900 ) ) ;
#628 = LINE ( 'NONE', #638, #1157 ) ;
#629 = DIRECTION ( 'NONE',  ( -0.2920978232508024700, -0.2270767997940618400, -0.9290398208082527600 ) ) ;
#630 = CARTESIAN_POINT ( 'NONE',  ( -6.076712978833652000, -0.2283939205054899000, 0.3213717717533155500 ) ) ;
#631 = CARTESIAN_POINT ( 'NONE',  ( -6.153093091034400600, -0.5811690261631906600, 0.4316119404299943500 ) ) ;
#632 = DIRECTION ( 'NONE',  ( 0.0000000000000000000, 0.9536683554215617000, -0.3008598807876083400 ) ) ;
#633 = DIRECTION ( 'NONE',  ( 0.2023805367980216800, 0.9347304317168067000, -0.2920978232508018600 ) ) ;
#634 = CARTESIAN_POINT ( 'NONE',  ( -6.446858752463750600, -0.5244238313936119300, -0.4096638417528898300 ) ) ;
#635 = CARTESIAN_POINT ( 'NONE',  ( 0.0000000000000000000, 0.0000000000000000000, 0.0000000000000000000 ) ) ;
#636 = CARTESIAN_POINT ( 'NONE',  ( -6.076712978833652000, -0.2283939205054899000, -0.3213717717533155500 ) ) ;
#637 = DIRECTION ( 'NONE',  ( 0.0000000000000000000, 0.0000000000000000000, 1.000000000000000000 ) ) ;
#638 = CARTESIAN_POINT ( 'NONE',  ( -6.076712978833652000, -0.2582209140556887000, 0.2259236159002222000 ) ) ;
#639 = DIRECTION ( 'NONE',  ( 1.000000000000000000, -0.0000000000000000000, -0.0000000000000000000 ) ) ;
#640 = LINE ( 'NONE', #641, #1032 ) ;
#641 = CARTESIAN_POINT ( 'NONE',  ( -5.782920891381861500, -1.567874932420836500E-017, 0.1499999999999999100 ) ) ;
#642 = CARTESIAN_POINT ( 'NONE',  ( 0.0000000000000000000, 0.0000000000000000000, 0.0000000000000000000 ) ) ;
#643 = DIRECTION ( 'NONE',  ( 1.000000000000000000, -0.0000000000000000000, -0.0000000000000000000 ) ) ;
#644 = DIRECTION ( 'NONE',  ( 0.0000000000000000000, 0.0000000000000000000, 1.000000000000000000 ) ) ;
#645 = DIRECTION ( 'NONE',  ( -0.01313469293225410400, 0.3008339274710438700, -0.9535860883653465300 ) ) ;
#646 = DIRECTION ( 'NONE',  ( -0.2920978232508024700, -0.2270767997940618400, -0.9290398208082527600 ) ) ;
#647 = CARTESIAN_POINT ( 'NONE',  ( 0.0000000000000000000, 0.0000000000000000000, 0.0000000000000000000 ) ) ;
#648 = LINE ( 'NONE', #530, #1143 ) ;
#649 = DIRECTION ( 'NONE',  ( 1.000000000000000000, 2.689687323959279400E-017, 1.859947359092440600E-016 ) ) ;
#650 = DIRECTION ( 'NONE',  ( 1.000000000000000000, -0.0000000000000000000, -0.0000000000000000000 ) ) ;
#651 = LINE ( 'NONE', #539, #981 ) ;
#652 = DIRECTION ( 'NONE',  ( 0.0000000000000000000, 0.0000000000000000000, 1.000000000000000000 ) ) ;
#653 = DIRECTION ( 'NONE',  ( 0.0000000000000000000, 0.9536683554215617000, 0.3008598807876083400 ) ) ;
#654 = CARTESIAN_POINT ( 'NONE',  ( -5.782920891381861500, -1.567874932420836500E-017, 0.2499999999999998900 ) ) ;
#655 = DIRECTION ( 'NONE',  ( -0.2023805367980216800, -0.9347304317168067000, -0.2920978232508018600 ) ) ;
#656 = DIRECTION ( 'NONE',  ( 0.0000000000000000000, 0.0000000000000000000, 1.000000000000000000 ) ) ;
#657 = DIRECTION ( 'NONE',  ( -0.9990482215818578000, -0.04361938736533650000, -2.761679773755077700E-015 ) ) ;
#658 = DIRECTION ( 'NONE',  ( -0.2920978232508023600, -0.2270767997940622800, 0.9290398208082526500 ) ) ;
#659 = CARTESIAN_POINT ( 'NONE',  ( -4.099999999999999600, -0.5249999999999985800, -0.7249999999999999800 ) ) ;
#660 = DIRECTION ( 'NONE',  ( 1.000000000000000000, -0.0000000000000000000, -0.0000000000000000000 ) ) ;
#661 = LINE ( 'NONE', #613, #1167 ) ;
#662 = DIRECTION ( 'NONE',  ( -0.9990482215818578000, -0.04361938736533650000, -2.761679773755077700E-015 ) ) ;
#663 = DIRECTION ( 'NONE',  ( 0.0000000000000000000, 0.0000000000000000000, -1.000000000000000000 ) ) ;
#664 = CARTESIAN_POINT ( 'NONE',  ( 2.295300974821830100E-015, 0.1795065434919567700, -0.7249999999999999800 ) ) ;
#665 = CARTESIAN_POINT ( 'NONE',  ( -6.700000000000000200, -0.8218245836551888500, -0.5000000000000011100 ) ) ;
#666 = LINE ( 'NONE', #659, #1039 ) ;
#667 = LINE ( 'NONE', #525, #1059 ) ;
#668 = DIRECTION ( 'NONE',  ( 1.000000000000000000, -0.0000000000000000000, -0.0000000000000000000 ) ) ;
#669 = DIRECTION ( 'NONE',  ( 0.0000000000000000000, 0.0000000000000000000, -1.000000000000000000 ) ) ;
#670 = DIRECTION ( 'NONE',  ( -0.0004547108445936836100, 0.01041459057679367000, 0.9999456632943439800 ) ) ;
#671 = DIRECTION ( 'NONE',  ( 1.000000000000000000, -0.0000000000000000000, -0.0000000000000000000 ) ) ;
#672 = VERTEX_POINT ( 'NONE', #292 ) ;
#673 = VERTEX_POINT ( 'NONE', #428 ) ;
#674 = VERTEX_POINT ( 'NONE', #295 ) ;
#675 = VERTEX_POINT ( 'NONE', #240 ) ;
#676 = VERTEX_POINT ( 'NONE', #243 ) ;
#677 = ORIENTED_EDGE ( 'NONE', *, *, #756, .F. ) ;
#678 = VERTEX_POINT ( 'NONE', #235 ) ;
#679 = VERTEX_POINT ( 'NONE', #236 ) ;
#680 = VERTEX_POINT ( 'NONE', #226 ) ;
#681 = VERTEX_POINT ( 'NONE', #228 ) ;
#682 = ORIENTED_EDGE ( 'NONE', *, *, #892, .T. ) ;
#683 = VERTEX_POINT ( 'NONE', #234 ) ;
#684 = VERTEX_POINT ( 'NONE', #227 ) ;
#685 = VERTEX_POINT ( 'NONE', #219 ) ;
#686 = ORIENTED_EDGE ( 'NONE', *, *, #912, .F. ) ;
#687 = VERTEX_POINT ( 'NONE', #233 ) ;
#688 = ORIENTED_EDGE ( 'NONE', *, *, #938, .F. ) ;
#689 = ORIENTED_EDGE ( 'NONE', *, *, #958, .F. ) ;
#690 = ORIENTED_EDGE ( 'NONE', *, *, #746, .T. ) ;
#691 = ORIENTED_EDGE ( 'NONE', *, *, #758, .F. ) ;
#692 = ORIENTED_EDGE ( 'NONE', *, *, #762, .T. ) ;
#693 = ORIENTED_EDGE ( 'NONE', *, *, #959, .T. ) ;
#694 = ORIENTED_EDGE ( 'NONE', *, *, #954, .F. ) ;
#695 = ORIENTED_EDGE ( 'NONE', *, *, #837, .F. ) ;
#696 = ORIENTED_EDGE ( 'NONE', *, *, #914, .F. ) ;
#697 = ORIENTED_EDGE ( 'NONE', *, *, #758, .T. ) ;
#698 = ORIENTED_EDGE ( 'NONE', *, *, #932, .F. ) ;
#699 = ORIENTED_EDGE ( 'NONE', *, *, #950, .F. ) ;
#700 = VERTEX_POINT ( 'NONE', #221 ) ;
#701 = VERTEX_POINT ( 'NONE', #241 ) ;
#702 = ORIENTED_EDGE ( 'NONE', *, *, #928, .T. ) ;
#703 = ORIENTED_EDGE ( 'NONE', *, *, #955, .F. ) ;
#704 = ORIENTED_EDGE ( 'NONE', *, *, #952, .T. ) ;
#705 = ORIENTED_EDGE ( 'NONE', *, *, #821, .T. ) ;
#706 = ORIENTED_EDGE ( 'NONE', *, *, #829, .T. ) ;
#707 = ORIENTED_EDGE ( 'NONE', *, *, #744, .F. ) ;
#708 = ORIENTED_EDGE ( 'NONE', *, *, #768, .F. ) ;
#709 = ORIENTED_EDGE ( 'NONE', *, *, #933, .F. ) ;
#710 = ORIENTED_EDGE ( 'NONE', *, *, #926, .T. ) ;
#711 = ORIENTED_EDGE ( 'NONE', *, *, #813, .T. ) ;
#712 = ORIENTED_EDGE ( 'NONE', *, *, #813, .F. ) ;
#713 = ORIENTED_EDGE ( 'NONE', *, *, #762, .F. ) ;
#714 = ORIENTED_EDGE ( 'NONE', *, *, #911, .F. ) ;
#715 = VERTEX_POINT ( 'NONE', #213 ) ;
#716 = ORIENTED_EDGE ( 'NONE', *, *, #951, .F. ) ;
#717 = VERTEX_POINT ( 'NONE', #203 ) ;
#718 = VERTEX_POINT ( 'NONE', #199 ) ;
#719 = ORIENTED_EDGE ( 'NONE', *, *, #910, .F. ) ;
#720 = ORIENTED_EDGE ( 'NONE', *, *, #821, .F. ) ;
#721 = ORIENTED_EDGE ( 'NONE', *, *, #936, .F. ) ;
#722 = VERTEX_POINT ( 'NONE', #208 ) ;
#723 = ORIENTED_EDGE ( 'NONE', *, *, #953, .T. ) ;
#724 = VERTEX_POINT ( 'NONE', #217 ) ;
#725 = VERTEX_POINT ( 'NONE', #200 ) ;
#726 = ORIENTED_EDGE ( 'NONE', *, *, #823, .F. ) ;
#727 = ORIENTED_EDGE ( 'NONE', *, *, #943, .T. ) ;
#728 = ORIENTED_EDGE ( 'NONE', *, *, #943, .F. ) ;
#729 = ORIENTED_EDGE ( 'NONE', *, *, #944, .T. ) ;
#730 = ORIENTED_EDGE ( 'NONE', *, *, #941, .F. ) ;
#731 = ORIENTED_EDGE ( 'NONE', *, *, #835, .T. ) ;
#732 = VERTEX_POINT ( 'NONE', #197 ) ;
#733 = ORIENTED_EDGE ( 'NONE', *, *, #975, .F. ) ;
#734 = ORIENTED_EDGE ( 'NONE', *, *, #831, .F. ) ;
#735 = VERTEX_POINT ( 'NONE', #454 ) ;
#736 = ORIENTED_EDGE ( 'NONE', *, *, #886, .F. ) ;
#737 = VERTEX_POINT ( 'NONE', #446 ) ;
#738 = ORIENTED_EDGE ( 'NONE', *, *, #937, .F. ) ;
#739 = ORIENTED_EDGE ( 'NONE', *, *, #956, .T. ) ;
#740 = ORIENTED_EDGE ( 'NONE', *, *, #898, .F. ) ;
#741 = ORIENTED_EDGE ( 'NONE', *, *, #927, .T. ) ;
#742 = PRODUCT ( 'AB26TRQ', 'AB26TRQ', '', ( #1263 ) ) ;
#743 = CIRCLE ( 'NONE', #984, 0.09999999999999999200 ) ;
#744 = EDGE_CURVE ( 'NONE', #684, #725, #808, .T. ) ;
#745 = TOROIDAL_SURFACE ( 'NONE', #1003, 0.3000000000000015400, 0.1000000000000000100 ) ;
#746 = EDGE_CURVE ( 'NONE', #718, #355, #819, .T. ) ;
#747 = CIRCLE ( 'NONE', #986, 0.09999999999999999200 ) ;
#748 = CIRCLE ( 'NONE', #1009, 0.1000000000000000200 ) ;
#749 = CIRCLE ( 'NONE', #1048, 0.1999999999999999800 ) ;
#750 = CIRCLE ( 'NONE', #1130, 0.6799999999999993800 ) ;
#751 = CIRCLE ( 'NONE', #1002, 0.2000000000000000100 ) ;
#752 = CIRCLE ( 'NONE', #1102, 0.1000000000000000200 ) ;
#753 = CIRCLE ( 'NONE', #1141, 0.4000000000000015800 ) ;
#754 = ADVANCED_FACE ( 'NONE', ( #1001 ), #817, .T. ) ;
#755 = CIRCLE ( 'NONE', #998, 0.1000000000000000300 ) ;
#756 = EDGE_CURVE ( 'NONE', #676, #673, #856, .T. ) ;
#757 = TOROIDAL_SURFACE ( 'NONE', #1129, 0.2999999999999999900, 0.1000000000000000100 ) ;
#758 = EDGE_CURVE ( 'NONE', #319, #459, #809, .T. ) ;
#759 = ADVANCED_FACE ( 'NONE', ( #1004 ), #811, .T. ) ;
#760 = CIRCLE ( 'NONE', #1077, 0.7249999999999999800 ) ;
#761 = ADVANCED_FACE ( 'NONE', ( #1110 ), #977, .T. ) ;
#762 = EDGE_CURVE ( 'NONE', #353, #210, #806, .T. ) ;
#763 = COLOUR_RGB ( '',1.000000000000000000, 0.8352941176470588500, 0.6235294117647058900 ) ;
#764 = ADVANCED_FACE ( 'NONE', ( #1070 ), #364, .T. ) ;
#765 = CIRCLE ( 'NONE', #1125, 0.09999999999999999200 ) ;
#766 = CIRCLE ( 'NONE', #1045, 0.1000000000000000300 ) ;
#767 = CIRCLE ( 'NONE', #1007, 0.1999999999999999800 ) ;
#768 = EDGE_CURVE ( 'NONE', #456, #439, #855, .T. ) ;
#769 = CIRCLE ( 'NONE', #1134, 0.7249999999999999800 ) ;
#770 = ADVANCED_FACE ( 'NONE', ( #1090 ), #814, .T. ) ;
#771 = CIRCLE ( 'NONE', #1155, 0.7249999999999999800 ) ;
#772 = CIRCLE ( 'NONE', #1082, 0.2000000000000015700 ) ;
#773 = CIRCLE ( 'NONE', #1164, 0.09999999999999999200 ) ;
#774 = CIRCLE ( 'NONE', #1123, 0.1000000000000000200 ) ;
#775 = CIRCLE ( 'NONE', #1067, 0.1000000000000000300 ) ;
#776 = CIRCLE ( 'NONE', #1122, 0.09999999999999999200 ) ;
#777 = CIRCLE ( 'NONE', #1113, 0.09999999999999999200 ) ;
#778 = CIRCLE ( 'NONE', #1088, 0.1000000000000000200 ) ;
#779 = CIRCLE ( 'NONE', #1093, 0.09999999999999999200 ) ;
#780 = PRODUCT_RELATED_PRODUCT_CATEGORY ( 'part', '', ( #742 ) ) ;
#781 = CIRCLE ( 'NONE', #1072, 0.1000000000000000200 ) ;
#782 = CIRCLE ( 'NONE', #1145, 0.1000000000000000200 ) ;
#783 = CIRCLE ( 'NONE', #1116, 0.09999999999999999200 ) ;
#784 = CIRCLE ( 'NONE', #1062, 0.09999999999999999200 ) ;
#785 = CIRCLE ( 'NONE', #1142, 0.09999999999999999200 ) ;
#786 = CIRCLE ( 'NONE', #1133, 0.2000000000000000100 ) ;
#787 = CIRCLE ( 'NONE', #1078, 0.09999999999999999200 ) ;
#788 = CIRCLE ( 'NONE', #1144, 0.1000000000000000300 ) ;
#789 = CIRCLE ( 'NONE', #1086, 0.1000000000000000300 ) ;
#790 = CIRCLE ( 'NONE', #1063, 0.4000000000000000200 ) ;
#791 = CIRCLE ( 'NONE', #1096, 0.1000000000000000200 ) ;
#792 = TOROIDAL_SURFACE ( 'NONE', #1046, 0.3000000000000015400, 0.1000000000000000100 ) ;
#793 = CIRCLE ( 'NONE', #1126, 0.4000000000000015800 ) ;
#794 = TOROIDAL_SURFACE ( 'NONE', #1036, 0.2999999999999999900, 0.1000000000000000100 ) ;
#795 = TOROIDAL_SURFACE ( 'NONE', #1127, 0.2999999999999999900, 0.1000000000000000100 ) ;
#796 = CIRCLE ( 'NONE', #1075, 0.09999999999999999200 ) ;
#797 = CIRCLE ( 'NONE', #1079, 0.09999999999999999200 ) ;
#798 = COLOUR_RGB ( '',1.000000000000000000, 0.8352941176470588500, 0.6235294117647058900 ) ;
#799 = CIRCLE ( 'NONE', #1124, 0.09999999999999999200 ) ;
#800 = CIRCLE ( 'NONE', #997, 0.09999999999999999200 ) ;
#801 = TOROIDAL_SURFACE ( 'NONE', #1104, 0.2999999999999999900, 0.1000000000000000100 ) ;
#802 = CIRCLE ( 'NONE', #1161, 0.09999999999999999200 ) ;
#803 = TOROIDAL_SURFACE ( 'NONE', #1041, 0.3000000000000015400, 0.1000000000000000100 ) ;
#804 = CONICAL_SURFACE ( 'NONE', #1131, 0.9424621202458749500, 1.047197551196592700 ) ;
#805 = TOROIDAL_SURFACE ( 'NONE', #1165, 0.3000000000000015400, 0.1000000000000000100 ) ;
#806 = CIRCLE ( 'NONE', #999, 0.1999999999999999800 ) ;
#807 = CIRCLE ( 'NONE', #1111, 0.1000000000000000200 ) ;
#808 = CIRCLE ( 'NONE', #1091, 0.09999999999999999200 ) ;
#809 = CIRCLE ( 'NONE', #1000, 0.6799999999999992700 ) ;
#810 = CIRCLE ( 'NONE', #1080, 0.4000000000000000200 ) ;
#811 = CONICAL_SURFACE ( 'NONE', #1089, 0.9424621202458749500, 1.047197551196592700 ) ;
#812 = CIRCLE ( 'NONE', #1100, 0.1000000000000000300 ) ;
#813 = EDGE_CURVE ( 'NONE', #254, #353, #279, .T. ) ;
#814 = CONICAL_SURFACE ( 'NONE', #1168, 0.9424621202458749500, 1.047197551196592700 ) ;
#815 = CIRCLE ( 'NONE', #1158, 0.6799999999999993800 ) ;
#816 = CIRCLE ( 'NONE', #1095, 0.1000000000000000300 ) ;
#817 = CONICAL_SURFACE ( 'NONE', #1054, 0.9424621202458749500, 1.047197551196592700 ) ;
#818 = CIRCLE ( 'NONE', #1051, 0.1000000000000000200 ) ;
#819 = CIRCLE ( 'NONE', #990, 0.1000000000000000200 ) ;
#820 = CIRCLE ( 'NONE', #1043, 0.09999999999999999200 ) ;
#821 = EDGE_CURVE ( 'NONE', #680, #351, #815, .T. ) ;
#822 = CIRCLE ( 'NONE', #1094, 0.1999999999999999800 ) ;
#823 = EDGE_CURVE ( 'NONE', #430, #444, #802, .T. ) ;
#824 = CIRCLE ( 'NONE', #1114, 0.09999999999999999200 ) ;
#825 = CIRCLE ( 'NONE', #976, 0.2000000000000015700 ) ;
#826 = CIRCLE ( 'NONE', #1085, 0.1000000000000000200 ) ;
#827 = CIRCLE ( 'NONE', #1160, 0.09999999999999999200 ) ;
#828 = CIRCLE ( 'NONE', #1108, 0.7249999999999999800 ) ;
#829 = EDGE_CURVE ( 'NONE', #735, #303, #812, .T. ) ;
#830 = CIRCLE ( 'NONE', #982, 0.6799999999999992700 ) ;
#831 = EDGE_CURVE ( 'NONE', #439, #676, #857, .T. ) ;
#832 = CIRCLE ( 'NONE', #1073, 0.1000000000000000300 ) ;
#833 = CIRCLE ( 'NONE', #1066, 0.1000000000000000200 ) ;
#834 = ADVANCED_FACE ( 'NONE', ( #983 ), #804, .T. ) ;
#835 = EDGE_CURVE ( 'NONE', #684, #735, #810, .T. ) ;
#836 = ADVANCED_FACE ( 'NONE', ( #1153 ), #195, .F. ) ;
#837 = EDGE_CURVE ( 'NONE', #434, #429, #800, .T. ) ;
#838 = MANIFOLD_SOLID_BREP ( 'Cut-Revolve4', #1098 ) ;
#839 = PRODUCT_DEFINITION_SHAPE ( 'NONE', 'NONE',  #924 ) ;
#840 = PRODUCT_DEFINITION_CONTEXT ( 'detailed design', #854, 'design' ) ;
#841 = B_SPLINE_CURVE_WITH_KNOTS ( 'NONE', 3,
 ( #1235, #1238, #1239, #1240, #1241, #1243 ),
 .UNSPECIFIED., .F., .F.,
 ( 4, 2, 4 ),
 ( 2.083987505931138900E-007, 0.0001596235037905692800, 0.0003190386088305454400 ),
 .UNSPECIFIED. ) ;
#842 = B_SPLINE_CURVE_WITH_KNOTS ( 'NONE', 3,
 ( #1209, #1206, #1210, #1208 ),
 .UNSPECIFIED., .F., .F.,
 ( 4, 4 ),
 ( 0.0007563594497802482700, 0.001291910711287277200 ),
 .UNSPECIFIED. ) ;
#843 = B_SPLINE_CURVE_WITH_KNOTS ( 'NONE', 3,
 ( #1211, #1213, #1215, #1212 ),
 .UNSPECIFIED., .F., .F.,
 ( 4, 4 ),
 ( 0.001291910711287277200, 0.001827228821210980900 ),
 .UNSPECIFIED. ) ;
#844 = B_SPLINE_CURVE_WITH_KNOTS ( 'NONE', 3,
 ( #602, #593, #561, #597, #560, #557 ),
 .UNSPECIFIED., .F., .F.,
 ( 4, 2, 4 ),
 ( 2.083987500890749400E-007, 0.0001596235037900650400, 0.0003190386088300410200 ),
 .UNSPECIFIED. ) ;
#845 = B_SPLINE_CURVE_WITH_KNOTS ( 'NONE', 3,
 ( #566, #565, #568, #563 ),
 .UNSPECIFIED., .F., .F.,
 ( 4, 4 ),
 ( 0.001946937852587172000, 0.002480965390167066100 ),
 .UNSPECIFIED. ) ;
#846 = B_SPLINE_CURVE_WITH_KNOTS ( 'NONE', 3,
 ( #507, #664, #482, #475 ),
 .UNSPECIFIED., .F., .F.,
 ( 4, 4 ),
 ( 0.001291910711287277200, 0.001827228821210479600 ),
 .UNSPECIFIED. ) ;
#847 = B_SPLINE_CURVE_WITH_KNOTS ( 'NONE', 3,
 ( #480, #491, #488, #481, #485, #486 ),
 .UNSPECIFIED., .F., .F.,
 ( 4, 2, 4 ),
 ( 2.083987505931102900E-007, 0.0001596235037905690600, 0.0003190386088305450100 ),
 .UNSPECIFIED. ) ;
#848 = B_SPLINE_CURVE_WITH_KNOTS ( 'NONE', 3,
 ( #604, #607, #601, #599 ),
 .UNSPECIFIED., .F., .F.,
 ( 4, 4 ),
 ( 0.0007563594497802482700, 0.001291910711287277200 ),
 .UNSPECIFIED. ) ;
#849 = UNCERTAINTY_MEASURE_WITH_UNIT (LENGTH_MEASURE( 1.000000000000000100E-005 ), #1256, 'distance_accuracy_value', 'NONE');
#850 =( GEOMETRIC_REPRESENTATION_CONTEXT ( 3 ) GLOBAL_UNCERTAINTY_ASSIGNED_CONTEXT ( ( #193 ) ) GLOBAL_UNIT_ASSIGNED_CONTEXT ( ( #257, #263, #266 ) ) REPRESENTATION_CONTEXT ( 'NONE', 'WORKASPACE' ) );
#851 =( GEOMETRIC_REPRESENTATION_CONTEXT ( 3 ) GLOBAL_UNCERTAINTY_ASSIGNED_CONTEXT ( ( #849 ) ) GLOBAL_UNIT_ASSIGNED_CONTEXT ( ( #1256, #1257, #1258 ) ) REPRESENTATION_CONTEXT ( 'NONE', 'WORKASPACE' ) );
#852 =( GEOMETRIC_REPRESENTATION_CONTEXT ( 3 ) GLOBAL_UNCERTAINTY_ASSIGNED_CONTEXT ( ( #471 ) ) GLOBAL_UNIT_ASSIGNED_CONTEXT ( ( #1246, #1247, #1248 ) ) REPRESENTATION_CONTEXT ( 'NONE', 'WORKASPACE' ) );
#853 = APPLICATION_CONTEXT ( 'automotive_design' ) ;
#854 = APPLICATION_CONTEXT ( 'automotive_design' ) ;
#855 = B_SPLINE_CURVE_WITH_KNOTS ( 'NONE', 3,
 ( #465, #264, #271, #272 ),
 .UNSPECIFIED., .F., .F.,
 ( 4, 4 ),
 ( 0.001946937852587171600, 0.002480965390167063900 ),
 .UNSPECIFIED. ) ;
#856 = B_SPLINE_CURVE_WITH_KNOTS ( 'NONE', 3,
 ( #467, #285, #205, #250, #297, #469 ),
 .UNSPECIFIED., .F., .F.,
 ( 4, 2, 4 ),
 ( 2.083987510781406200E-007, 0.0001596235037905595500, 0.0003190386088300409700 ),
 .UNSPECIFIED. ) ;
#857 = B_SPLINE_CURVE_WITH_KNOTS ( 'NONE', 3,
 ( #294, #280, #237, #283 ),
 .UNSPECIFIED., .F., .F.,
 ( 4, 4 ),
 ( 0.002480965390167063900, 0.003015225517237425500 ),
 .UNSPECIFIED. ) ;
#858 = ADVANCED_FACE ( 'NONE', ( #1107 ), #992, .T. ) ;
#859 = ADVANCED_FACE ( 'NONE', ( #1148 ), #805, .T. ) ;
#860 = ADVANCED_FACE ( 'NONE', ( #1099 ), #1042, .T. ) ;
#861 = ADVANCED_FACE ( 'NONE', ( #1138 ), #306, .T. ) ;
#862 = ADVANCED_FACE ( 'NONE', ( #1121 ), #1023, .T. ) ;
#863 = ADVANCED_FACE ( 'NONE', ( #1022 ), #794, .T. ) ;
#864 = ADVANCED_FACE ( 'NONE', ( #1024 ), #1028, .T. ) ;
#865 = ADVANCED_FACE ( 'NONE', ( #1026 ), #334, .T. ) ;
#866 = ADVANCED_FACE ( 'NONE', ( #1029 ), #803, .T. ) ;
#867 = ADVANCED_FACE ( 'NONE', ( #1038 ), #1025, .T. ) ;
#868 = ADVANCED_FACE ( 'NONE', ( #1030 ), #1017, .T. ) ;
#869 = ADVANCED_FACE ( 'NONE', ( #1020 ), #1135, .T. ) ;
#870 = ADVANCED_FACE ( 'NONE', ( #1013 ), #792, .T. ) ;
#871 = ADVANCED_FACE ( 'NONE', ( #1056 ), #365, .T. ) ;
#872 = ADVANCED_FACE ( 'NONE', ( #1033 ), #801, .T. ) ;
#873 = ADVANCED_FACE ( 'NONE', ( #1049 ), #1119, .T. ) ;
#874 = ADVANCED_FACE ( 'NONE', ( #1150 ), #1061, .T. ) ;
#875 = ADVANCED_FACE ( 'NONE', ( #1064 ), #1065, .T. ) ;
#876 = ADVANCED_FACE ( 'NONE', ( #1115 ), #1120, .T. ) ;
#877 = ADVANCED_FACE ( 'NONE', ( #1117 ), #1069, .T. ) ;
#878 = EDGE_CURVE ( 'NONE', #422, #674, #807, .T. ) ;
#879 = EDGE_CURVE ( 'NONE', #198, #323, #796, .T. ) ;
#880 = EDGE_CURVE ( 'NONE', #722, #717, #790, .T. ) ;
#881 = EDGE_CURVE ( 'NONE', #681, #722, #799, .T. ) ;
#882 = EDGE_CURVE ( 'NONE', #246, #198, #421, .T. ) ;
#883 = EDGE_CURVE ( 'NONE', #715, #246, #788, .T. ) ;
#884 = ADVANCED_FACE ( 'NONE', ( #1162 ), #795, .T. ) ;
#885 = EDGE_CURVE ( 'NONE', #685, #679, #194, .T. ) ;
#886 = EDGE_CURVE ( 'NONE', #448, #433, #447, .T. ) ;
#887 = EDGE_CURVE ( 'NONE', #252, #715, #786, .T. ) ;
#888 = EDGE_CURVE ( 'NONE', #252, #681, #797, .T. ) ;
#889 = EDGE_CURVE ( 'NONE', #687, #287, #784, .T. ) ;
#890 = EDGE_CURVE ( 'NONE', #287, #718, #793, .T. ) ;
#891 = EDGE_CURVE ( 'NONE', #355, #276, #782, .T. ) ;
#892 = EDGE_CURVE ( 'NONE', #678, #718, #791, .T. ) ;
#893 = EDGE_CURVE ( 'NONE', #732, #687, #648, .T. ) ;
#894 = EDGE_CURVE ( 'NONE', #732, #715, #816, .T. ) ;
#895 = EDGE_CURVE ( 'NONE', #246, #717, #789, .T. ) ;
#896 = EDGE_CURVE ( 'NONE', #323, #687, #827, .T. ) ;
#897 = EDGE_CURVE ( 'NONE', #681, #444, #556, .T. ) ;
#898 = EDGE_CURVE ( 'NONE', #444, #430, #787, .T. ) ;
#899 = EDGE_CURVE ( 'NONE', #303, #737, #600, .T. ) ;
#900 = EDGE_CURVE ( 'NONE', #737, #220, #765, .T. ) ;
#901 = EDGE_CURVE ( 'NONE', #468, #430, #661, .T. ) ;
#902 = EDGE_CURVE ( 'NONE', #260, #737, #785, .T. ) ;
#903 = EDGE_CURVE ( 'NONE', #218, #735, #832, .T. ) ;
#904 = EDGE_CURVE ( 'NONE', #722, #468, #783, .T. ) ;
#905 = EDGE_CURVE ( 'NONE', #269, #434, #640, .T. ) ;
#906 = EDGE_CURVE ( 'NONE', #323, #276, #825, .T. ) ;
#907 = EDGE_CURVE ( 'NONE', #276, #678, #781, .T. ) ;
#908 = EDGE_CURVE ( 'NONE', #338, #256, #774, .T. ) ;
#909 = EDGE_CURVE ( 'NONE', #441, #269, #779, .T. ) ;
#910 = EDGE_CURVE ( 'NONE', #260, #422, #772, .T. ) ;
#911 = EDGE_CURVE ( 'NONE', #259, #260, #777, .T. ) ;
#912 = EDGE_CURVE ( 'NONE', #455, #204, #587, .T. ) ;
#913 = EDGE_CURVE ( 'NONE', #455, #683, #574, .T. ) ;
#914 = EDGE_CURVE ( 'NONE', #678, #338, #510, .T. ) ;
#915 = EDGE_CURVE ( 'NONE', #674, #700, #583, .T. ) ;
#916 = EDGE_CURVE ( 'NONE', #700, #672, #826, .T. ) ;
#917 = EDGE_CURVE ( 'NONE', #675, #218, #775, .T. ) ;
#918 = EDGE_CURVE ( 'NONE', #468, #252, #776, .T. ) ;
#919 = EDGE_CURVE ( 'NONE', #287, #198, #773, .T. ) ;
#920 = EDGE_CURVE ( 'NONE', #435, #672, #532, .T. ) ;
#921 = EDGE_CURVE ( 'NONE', #674, #296, #778, .T. ) ;
#922 = EDGE_CURVE ( 'NONE', #448, #701, #651, .T. ) ;
#923 = EDGE_CURVE ( 'NONE', #232, #281, #771, .T. ) ;
#924 = PRODUCT_DEFINITION ( 'UNKNOWN', '', #1087, #840 ) ;
#925 = EDGE_CURVE ( 'NONE', #717, #732, #766, .T. ) ;
#926 = EDGE_CURVE ( 'NONE', #685, #439, #769, .T. ) ;
#927 = EDGE_CURVE ( 'NONE', #439, #232, #760, .T. ) ;
#928 = EDGE_CURVE ( 'NONE', #281, #685, #828, .T. ) ;
#929 = EDGE_CURVE ( 'NONE', #218, #259, #628, .T. ) ;
#930 = EDGE_CURVE ( 'NONE', #725, #429, #625, .T. ) ;
#931 = EDGE_CURVE ( 'NONE', #269, #684, #743, .T. ) ;
#932 = EDGE_CURVE ( 'NONE', #429, #434, #824, .T. ) ;
#933 = EDGE_CURVE ( 'NONE', #459, #319, #830, .T. ) ;
#934 = EDGE_CURVE ( 'NONE', #673, #232, #848, .T. ) ;
#935 = EDGE_CURVE ( 'NONE', #258, #683, #844, .T. ) ;
#936 = EDGE_CURVE ( 'NONE', #210, #724, #547, .T. ) ;
#937 = EDGE_CURVE ( 'NONE', #254, #456, #549, .T. ) ;
#938 = EDGE_CURVE ( 'NONE', #433, #254, #767, .T. ) ;
#939 = EDGE_CURVE ( 'NONE', #724, #258, #533, .T. ) ;
#940 = EDGE_CURVE ( 'NONE', #701, #685, #845, .T. ) ;
#941 = EDGE_CURVE ( 'NONE', #724, #455, #822, .T. ) ;
#942 = EDGE_CURVE ( 'NONE', #232, #258, #846, .T. ) ;
#943 = EDGE_CURVE ( 'NONE', #353, #676, #477, .T. ) ;
#944 = EDGE_CURVE ( 'NONE', #459, #680, #667, .T. ) ;
#945 = EDGE_CURVE ( 'NONE', #355, #256, #473, .T. ) ;
#946 = EDGE_CURVE ( 'NONE', #433, #679, #476, .T. ) ;
#947 = EDGE_CURVE ( 'NONE', #679, #456, #847, .T. ) ;
#948 = EDGE_CURVE ( 'NONE', #204, #265, #489, .T. ) ;
#949 = EDGE_CURVE ( 'NONE', #256, #338, #748, .T. ) ;
#950 = EDGE_CURVE ( 'NONE', #351, #680, #750, .T. ) ;
#951 = EDGE_CURVE ( 'NONE', #204, #448, #749, .T. ) ;
#952 = EDGE_CURVE ( 'NONE', #210, #673, #666, .T. ) ;
#953 = EDGE_CURVE ( 'NONE', #303, #675, #755, .T. ) ;
#954 = EDGE_CURVE ( 'NONE', #441, #675, #751, .T. ) ;
#955 = EDGE_CURVE ( 'NONE', #725, #441, #747, .T. ) ;
#956 = EDGE_CURVE ( 'NONE', #220, #296, #753, .T. ) ;
#957 = EDGE_CURVE ( 'NONE', #296, #435, #818, .T. ) ;
#958 = EDGE_CURVE ( 'NONE', #220, #259, #820, .T. ) ;
#959 = EDGE_CURVE ( 'NONE', #435, #422, #833, .T. ) ;
#960 = ADVANCED_FACE ( 'NONE', ( #1034 ), #988, .T. ) ;
#961 = ADVANCED_FACE ( 'NONE', ( #1081 ), #1053, .T. ) ;
#962 = ADVANCED_FACE ( 'NONE', ( #1058 ), #1014, .T. ) ;
#963 = ADVANCED_FACE ( 'NONE', ( #1097 ), #745, .T. ) ;
#964 = ADVANCED_FACE ( 'NONE', ( #1005 ), #1092, .T. ) ;
#965 = ADVANCED_FACE ( 'NONE', ( #1169 ), #757, .T. ) ;
#966 = EDGE_CURVE ( 'NONE', #683, #281, #842, .T. ) ;
#967 = EDGE_CURVE ( 'NONE', #281, #265, #843, .T. ) ;
#968 = ADVANCED_FACE ( 'NONE', ( #1101 ), #1040, .T. ) ;
#969 = ADVANCED_FACE ( 'NONE', ( #1112 ), #1219, .T. ) ;
#970 = ADVANCED_FACE ( 'NONE', ( #1163, #1076 ), #1220, .T. ) ;
#971 = EDGE_CURVE ( 'NONE', #672, #700, #752, .T. ) ;
#972 = ADVANCED_FACE ( 'NONE', ( #1047, #1016, #1050 ), #1229, .T. ) ;
#973 = ADVANCED_FACE ( 'NONE', ( #987 ), #1233, .T. ) ;
#974 = EDGE_CURVE ( 'NONE', #265, #701, #841, .T. ) ;
#975 = EDGE_CURVE ( 'NONE', #319, #351, #1244, .T. ) ;
#976 = AXIS2_PLACEMENT_3D ( 'NONE', #634, #645, #653 ) ;
#977 = CYLINDRICAL_SURFACE ( 'NONE', #1132, 0.09999999999999999200 ) ;
#978 = VECTOR ( 'NONE', #460, 1000.000000000000000 ) ;
#979 = VECTOR ( 'NONE', #496, 1000.000000000000000 ) ;
#980 = AXIS2_PLACEMENT_3D ( 'NONE', #1234, #1236, #1237 ) ;
#981 = VECTOR ( 'NONE', #517, 1000.000000000000000 ) ;
#982 = AXIS2_PLACEMENT_3D ( 'NONE', #609, #612, #606 ) ;
#983 = FACE_OUTER_BOUND ( 'NONE', #151, .T. ) ;
#984 = AXIS2_PLACEMENT_3D ( 'NONE', #627, #623, #663 ) ;
#985 = AXIS2_PLACEMENT_3D ( 'NONE', #1189, #1190, #1191 ) ;
#986 = AXIS2_PLACEMENT_3D ( 'NONE', #1175, #1177, #1174 ) ;
#987 = FACE_OUTER_BOUND ( 'NONE', #30, .T. ) ;
#988 = CYLINDRICAL_SURFACE ( 'NONE', #985, 0.09999999999999997800 ) ;
#989 = VECTOR ( 'NONE', #577, 1000.000000000000000 ) ;
#990 = AXIS2_PLACEMENT_3D ( 'NONE', #445, #443, #451 ) ;
#991 = VECTOR ( 'NONE', #546, 1000.000000000000000 ) ;
#992 = CYLINDRICAL_SURFACE ( 'NONE', #996, 0.09999999999999997800 ) ;
#993 = VECTOR ( 'NONE', #537, 1000.000000000000000 ) ;
#994 = STYLED_ITEM ( 'NONE', ( #251 ), #838 ) ;
#995 = AXIS2_PLACEMENT_3D ( 'NONE', #407, #201, #231 ) ;
#996 = AXIS2_PLACEMENT_3D ( 'NONE', #239, #282, #273 ) ;
#997 = AXIS2_PLACEMENT_3D ( 'NONE', #212, #268, #288 ) ;
#998 = AXIS2_PLACEMENT_3D ( 'NONE', #630, #1266, #1171 ) ;
#999 = AXIS2_PLACEMENT_3D ( 'NONE', #206, #388, #463 ) ;
#1000 = AXIS2_PLACEMENT_3D ( 'NONE', #332, #293, #275 ) ;
#1001 = FACE_OUTER_BOUND ( 'NONE', #169, .T. ) ;
#1002 = AXIS2_PLACEMENT_3D ( 'NONE', #1172, #1170, #1173 ) ;
#1003 = AXIS2_PLACEMENT_3D ( 'NONE', #1198, #1199, #1201 ) ;
#1004 = FACE_OUTER_BOUND ( 'NONE', #150, .T. ) ;
#1005 = FACE_OUTER_BOUND ( 'NONE', #166, .T. ) ;
#1006 = MECHANICAL_DESIGN_GEOMETRIC_PRESENTATION_REPRESENTATION (  '', ( #994 ), #850 ) ;
#1007 = AXIS2_PLACEMENT_3D ( 'NONE', #512, #543, #541 ) ;
#1008 = VECTOR ( 'NONE', #514, 1000.000000000000000 ) ;
#1009 = AXIS2_PLACEMENT_3D ( 'NONE', #487, #498, #503 ) ;
#1010 = AXIS2_PLACEMENT_3D ( 'NONE', #230, #223, #207 ) ;
#1011 = AXIS2_PLACEMENT_3D ( 'NONE', #347, #344, #346 ) ;
#1012 = AXIS2_PLACEMENT_3D ( 'NONE', #393, #395, #396 ) ;
#1013 = FACE_OUTER_BOUND ( 'NONE', #155, .T. ) ;
#1014 = CYLINDRICAL_SURFACE ( 'NONE', #1057, 0.6799999999999993800 ) ;
#1015 = VECTOR ( 'NONE', #472, 1000.000000000000000 ) ;
#1016 = FACE_BOUND ( 'NONE', #16, .T. ) ;
#1017 = CYLINDRICAL_SURFACE ( 'NONE', #1019, 0.09999999999999999200 ) ;
#1018 = VECTOR ( 'NONE', #614, 1000.000000000000000 ) ;
#1019 = AXIS2_PLACEMENT_3D ( 'NONE', #348, #354, #356 ) ;
#1020 = FACE_OUTER_BOUND ( 'NONE', #182, .T. ) ;
#1021 = AXIS2_PLACEMENT_3D ( 'NONE', #310, #314, #312 ) ;
#1022 = FACE_OUTER_BOUND ( 'NONE', #175, .T. ) ;
#1023 = CYLINDRICAL_SURFACE ( 'NONE', #1106, 0.09999999999999999200 ) ;
#1024 = FACE_OUTER_BOUND ( 'NONE', #176, .T. ) ;
#1025 = CYLINDRICAL_SURFACE ( 'NONE', #1011, 0.09999999999999997800 ) ;
#1026 = FACE_OUTER_BOUND ( 'NONE', #168, .T. ) ;
#1027 = AXIS2_PLACEMENT_3D ( 'NONE', #333, #327, #331 ) ;
#1028 = CYLINDRICAL_SURFACE ( 'NONE', #1027, 0.09999999999999997800 ) ;
#1029 = FACE_OUTER_BOUND ( 'NONE', #159, .T. ) ;
#1030 = FACE_OUTER_BOUND ( 'NONE', #160, .T. ) ;
#1031 = AXIS2_PLACEMENT_3D ( 'NONE', #1223, #1225, #1227 ) ;
#1032 = VECTOR ( 'NONE', #649, 1000.000000000000000 ) ;
#1033 = FACE_OUTER_BOUND ( 'NONE', #163, .T. ) ;
#1034 = FACE_OUTER_BOUND ( 'NONE', #185, .T. ) ;
#1035 = VECTOR ( 'NONE', #490, 1000.000000000000000 ) ;
#1036 = AXIS2_PLACEMENT_3D ( 'NONE', #321, #328, #324 ) ;
#1037 = AXIS2_PLACEMENT_3D ( 'NONE', #337, #335, #341 ) ;
#1038 = FACE_OUTER_BOUND ( 'NONE', #154, .T. ) ;
#1039 = VECTOR ( 'NONE', #1265, 1000.000000000000000 ) ;
#1040 = CYLINDRICAL_SURFACE ( 'NONE', #1159, 0.1999999999999999800 ) ;
#1041 = AXIS2_PLACEMENT_3D ( 'NONE', #336, #339, #343 ) ;
#1042 = CYLINDRICAL_SURFACE ( 'NONE', #1044, 0.09999999999999999200 ) ;
#1043 = AXIS2_PLACEMENT_3D ( 'NONE', #1184, #1182, #1185 ) ;
#1044 = AXIS2_PLACEMENT_3D ( 'NONE', #289, #309, #290 ) ;
#1045 = AXIS2_PLACEMENT_3D ( 'NONE', #636, #655, #658 ) ;
#1046 = AXIS2_PLACEMENT_3D ( 'NONE', #358, #361, #363 ) ;
#1047 = FACE_BOUND ( 'NONE', #152, .T. ) ;
#1048 = AXIS2_PLACEMENT_3D ( 'NONE', #506, #505, #669 ) ;
#1049 = FACE_OUTER_BOUND ( 'NONE', #181, .T. ) ;
#1050 = FACE_OUTER_BOUND ( 'NONE', #157, .T. ) ;
#1051 = AXIS2_PLACEMENT_3D ( 'NONE', #1181, #1183, #1180 ) ;
#1052 = STYLED_ITEM ( 'NONE', ( #1253 ), #470 ) ;
#1053 = CYLINDRICAL_SURFACE ( 'NONE', #1136, 0.09999999999999999200 ) ;
#1054 = AXIS2_PLACEMENT_3D ( 'NONE', #255, #286, #261 ) ;
#1055 = MECHANICAL_DESIGN_GEOMETRIC_PRESENTATION_REPRESENTATION (  '', ( #1052 ), #851 ) ;
#1056 = FACE_OUTER_BOUND ( 'NONE', #177, .T. ) ;
#1057 = AXIS2_PLACEMENT_3D ( 'NONE', #1195, #1196, #1197 ) ;
#1058 = FACE_OUTER_BOUND ( 'NONE', #164, .T. ) ;
#1059 = VECTOR ( 'NONE', #643, 1000.000000000000000 ) ;
#1060 = AXIS2_PLACEMENT_3D ( 'NONE', #359, #357, #362 ) ;
#1061 = CYLINDRICAL_SURFACE ( 'NONE', #1139, 0.1999999999999999800 ) ;
#1062 = AXIS2_PLACEMENT_3D ( 'NONE', #493, #483, #499 ) ;
#1063 = AXIS2_PLACEMENT_3D ( 'NONE', #410, #411, #413 ) ;
#1064 = FACE_OUTER_BOUND ( 'NONE', #180, .T. ) ;
#1065 = CYLINDRICAL_SURFACE ( 'NONE', #1146, 0.2000000000000000400 ) ;
#1066 = AXIS2_PLACEMENT_3D ( 'NONE', #1186, #1187, #1188 ) ;
#1067 = AXIS2_PLACEMENT_3D ( 'NONE', #591, #571, #570 ) ;
#1068 = VECTOR ( 'NONE', #582, 1000.000000000000000 ) ;
#1069 = CYLINDRICAL_SURFACE ( 'NONE', #1147, 0.1999999999999999800 ) ;
#1070 = FACE_OUTER_BOUND ( 'NONE', #178, .T. ) ;
#1071 = PRESENTATION_LAYER_ASSIGNMENT (  '', '', ( #1052 ) ) ;
#1072 = AXIS2_PLACEMENT_3D ( 'NONE', #545, #657, #670 ) ;
#1073 = AXIS2_PLACEMENT_3D ( 'NONE', #622, #621, #619 ) ;
#1074 = VECTOR ( 'NONE', #1245, 1000.000000000000000 ) ;
#1075 = AXIS2_PLACEMENT_3D ( 'NONE', #403, #406, #409 ) ;
#1076 = FACE_OUTER_BOUND ( 'NONE', #33, .T. ) ;
#1077 = AXIS2_PLACEMENT_3D ( 'NONE', #642, #660, #652 ) ;
#1078 = AXIS2_PLACEMENT_3D ( 'NONE', #558, #595, #594 ) ;
#1079 = AXIS2_PLACEMENT_3D ( 'NONE', #224, #501, #500 ) ;
#1080 = AXIS2_PLACEMENT_3D ( 'NONE', #466, #458, #215 ) ;
#1081 = FACE_OUTER_BOUND ( 'NONE', #156, .T. ) ;
#1082 = AXIS2_PLACEMENT_3D ( 'NONE', #569, #567, #632 ) ;
#1083 = AXIS2_PLACEMENT_3D ( 'NONE', #1230, #1231, #1232 ) ;
#1084 = VECTOR ( 'NONE', #424, 1000.000000000000100 ) ;
#1085 = AXIS2_PLACEMENT_3D ( 'NONE', #589, #509, #575 ) ;
#1086 = AXIS2_PLACEMENT_3D ( 'NONE', #538, #535, #544 ) ;
#1087 = PRODUCT_DEFINITION_FORMATION_WITH_SPECIFIED_SOURCE ( 'ANY', '', #742, .NOT_KNOWN. ) ;
#1088 = AXIS2_PLACEMENT_3D ( 'NONE', #526, #520, #588 ) ;
#1089 = AXIS2_PLACEMENT_3D ( 'NONE', #418, #242, #368 ) ;
#1090 = FACE_OUTER_BOUND ( 'NONE', #153, .T. ) ;
#1091 = AXIS2_PLACEMENT_3D ( 'NONE', #442, #453, #450 ) ;
#1092 = CYLINDRICAL_SURFACE ( 'NONE', #1137, 0.09999999999999999200 ) ;
#1093 = AXIS2_PLACEMENT_3D ( 'NONE', #654, #671, #553 ) ;
#1094 = AXIS2_PLACEMENT_3D ( 'NONE', #585, #534, #596 ) ;
#1095 = AXIS2_PLACEMENT_3D ( 'NONE', #522, #536, #527 ) ;
#1096 = AXIS2_PLACEMENT_3D ( 'NONE', #511, #518, #516 ) ;
#1097 = FACE_OUTER_BOUND ( 'NONE', #192, .T. ) ;
#1098 = CLOSED_SHELL ( 'NONE', ( #872, #866, #965, #870, #868, #867, #869, #961, #960, #876, #873, #875, #871, #874, #865, #877, #973, #968, #969, #970, #972, #962, #964, #963, #864, #863, #862, #861, #860, #859, #858, #884, #761, #764, #770, #834, #754, #759, #836 ) ) ;
#1099 = FACE_OUTER_BOUND ( 'NONE', #173, .T. ) ;
#1100 = AXIS2_PLACEMENT_3D ( 'NONE', #267, #216, #436 ) ;
#1101 = FACE_OUTER_BOUND ( 'NONE', #174, .T. ) ;
#1102 = AXIS2_PLACEMENT_3D ( 'NONE', #1224, #1228, #1226 ) ;
#1103 = AXIS2_PLACEMENT_3D ( 'NONE', #366, #369, #370 ) ;
#1104 = AXIS2_PLACEMENT_3D ( 'NONE', #375, #371, #378 ) ;
#1105 = VECTOR ( 'NONE', #550, 1000.000000000000000 ) ;
#1106 = AXIS2_PLACEMENT_3D ( 'NONE', #318, #313, #316 ) ;
#1107 = FACE_OUTER_BOUND ( 'NONE', #27, .T. ) ;
#1108 = AXIS2_PLACEMENT_3D ( 'NONE', #635, #639, #644 ) ;
#1109 = PRESENTATION_LAYER_ASSIGNMENT (  '', '', ( #994 ) ) ;
#1110 = FACE_OUTER_BOUND ( 'NONE', #171, .T. ) ;
#1111 = AXIS2_PLACEMENT_3D ( 'NONE', #405, #402, #408 ) ;
#1112 = FACE_OUTER_BOUND ( 'NONE', #158, .T. ) ;
#1113 = AXIS2_PLACEMENT_3D ( 'NONE', #631, #633, #629 ) ;
#1114 = AXIS2_PLACEMENT_3D ( 'NONE', #618, #610, #615 ) ;
#1115 = FACE_OUTER_BOUND ( 'NONE', #28, .T. ) ;
#1116 = AXIS2_PLACEMENT_3D ( 'NONE', #626, #624, #637 ) ;
#1117 = FACE_OUTER_BOUND ( 'NONE', #61, .T. ) ;
#1118 = AXIS2_PLACEMENT_3D ( 'NONE', #1259, #1260, #1261 ) ;
#1119 = CYLINDRICAL_SURFACE ( 'NONE', #1149, 0.6799999999999993800 ) ;
#1120 = CYLINDRICAL_SURFACE ( 'NONE', #1012, 0.09999999999999999200 ) ;
#1121 = FACE_OUTER_BOUND ( 'NONE', #184, .T. ) ;
#1122 = AXIS2_PLACEMENT_3D ( 'NONE', #573, #576, #586 ) ;
#1123 = AXIS2_PLACEMENT_3D ( 'NONE', #665, #662, #559 ) ;
#1124 = AXIS2_PLACEMENT_3D ( 'NONE', #414, #415, #417 ) ;
#1125 = AXIS2_PLACEMENT_3D ( 'NONE', #592, #478, #603 ) ;
#1126 = AXIS2_PLACEMENT_3D ( 'NONE', #495, #484, #497 ) ;
#1127 = AXIS2_PLACEMENT_3D ( 'NONE', #427, #440, #431 ) ;
#1128 = VECTOR ( 'NONE', #605, 1000.000000000000100 ) ;
#1129 = AXIS2_PLACEMENT_3D ( 'NONE', #1202, #1205, #1207 ) ;
#1130 = AXIS2_PLACEMENT_3D ( 'NONE', #502, #479, #504 ) ;
#1131 = AXIS2_PLACEMENT_3D ( 'NONE', #300, #449, #452 ) ;
#1132 = AXIS2_PLACEMENT_3D ( 'NONE', #244, #209, #253 ) ;
#1133 = AXIS2_PLACEMENT_3D ( 'NONE', #461, #222, #340 ) ;
#1134 = AXIS2_PLACEMENT_3D ( 'NONE', #647, #650, #656 ) ;
#1135 = CYLINDRICAL_SURFACE ( 'NONE', #1060, 0.09999999999999999200 ) ;
#1136 = AXIS2_PLACEMENT_3D ( 'NONE', #1192, #1193, #1194 ) ;
#1137 = AXIS2_PLACEMENT_3D ( 'NONE', #1203, #1200, #1204 ) ;
#1138 = FACE_OUTER_BOUND ( 'NONE', #167, .T. ) ;
#1139 = AXIS2_PLACEMENT_3D ( 'NONE', #380, #382, #390 ) ;
#1140 = AXIS2_PLACEMENT_3D ( 'NONE', #1221, #1218, #1222 ) ;
#1141 = AXIS2_PLACEMENT_3D ( 'NONE', #1178, #1176, #1179 ) ;
#1142 = AXIS2_PLACEMENT_3D ( 'NONE', #608, #616, #646 ) ;
#1143 = VECTOR ( 'NONE', #523, 1000.000000000000100 ) ;
#1144 = AXIS2_PLACEMENT_3D ( 'NONE', #419, #438, #425 ) ;
#1145 = AXIS2_PLACEMENT_3D ( 'NONE', #590, #513, #515 ) ;
#1146 = AXIS2_PLACEMENT_3D ( 'NONE', #384, #394, #387 ) ;
#1147 = AXIS2_PLACEMENT_3D ( 'NONE', #397, #400, #401 ) ;
#1148 = FACE_OUTER_BOUND ( 'NONE', #170, .T. ) ;
#1149 = AXIS2_PLACEMENT_3D ( 'NONE', #372, #377, #379 ) ;
#1150 = FACE_OUTER_BOUND ( 'NONE', #32, .T. ) ;
#1151 = VECTOR ( 'NONE', #524, 1000.000000000000000 ) ;
#1152 = VECTOR ( 'NONE', #580, 1000.000000000000000 ) ;
#1153 = FACE_OUTER_BOUND ( 'NONE', #140, .T. ) ;
#1154 = VECTOR ( 'NONE', #562, 1000.000000000000000 ) ;
#1155 = AXIS2_PLACEMENT_3D ( 'NONE', #529, #668, #554 ) ;
#1156 = VECTOR ( 'NONE', #508, 1000.000000000000000 ) ;
#1157 = VECTOR ( 'NONE', #617, 1000.000000000000100 ) ;
#1158 = AXIS2_PLACEMENT_3D ( 'NONE', #225, #202, #196 ) ;
#1159 = AXIS2_PLACEMENT_3D ( 'NONE', #1216, #1214, #1217 ) ;
#1160 = AXIS2_PLACEMENT_3D ( 'NONE', #542, #551, #548 ) ;
#1161 = AXIS2_PLACEMENT_3D ( 'NONE', #214, #238, #211 ) ;
#1162 = FACE_OUTER_BOUND ( 'NONE', #172, .T. ) ;
#1163 = FACE_BOUND ( 'NONE', #161, .T. ) ;
#1164 = AXIS2_PLACEMENT_3D ( 'NONE', #519, #521, #531 ) ;
#1165 = AXIS2_PLACEMENT_3D ( 'NONE', #274, #284, #305 ) ;
#1166 = VECTOR ( 'NONE', #248, 1000.000000000000000 ) ;
#1167 = VECTOR ( 'NONE', #611, 1000.000000000000000 ) ;
#1168 = AXIS2_PLACEMENT_3D ( 'NONE', #229, #278, #277 ) ;
#1169 = FACE_OUTER_BOUND ( 'NONE', #162, .T. ) ;
#1170 = DIRECTION ( 'NONE',  ( 0.0000000000000000000, 0.2982699355019891600, 0.9544815585309331900 ) ) ;
#1171 = DIRECTION ( 'NONE',  ( -0.2920978232508023600, -0.2270767997940622800, -0.9290398208082526500 ) ) ;
#1172 = CARTESIAN_POINT ( 'NONE',  ( -5.782920891381861500, -0.2863444675592799500, 0.3394809806505966200 ) ) ;
#1173 = DIRECTION ( 'NONE',  ( 0.0000000000000000000, -0.9544815585309331900, 0.2982699355019892100 ) ) ;
#1174 = DIRECTION ( 'NONE',  ( 0.0000000000000000000, 0.0000000000000000000, -1.000000000000000000 ) ) ;
#1175 = CARTESIAN_POINT ( 'NONE',  ( -5.782920891381861500, -1.567874932420836500E-017, 0.2499999999999998900 ) ) ;
#1176 = DIRECTION ( 'NONE',  ( 0.01313469293225410400, -0.3008339274710438700, -0.9535860883653465300 ) ) ;
#1177 = DIRECTION ( 'NONE',  ( 1.000000000000000000, -0.0000000000000000000, -0.0000000000000000000 ) ) ;
#1178 = CARTESIAN_POINT ( 'NONE',  ( -6.446858752463750600, -0.5244238313936119300, 0.4096638417528898300 ) ) ;
#1179 = DIRECTION ( 'NONE',  ( 0.0000000000000000000, 0.9536683554215615900, -0.3008598807876081700 ) ) ;
#1180 = DIRECTION ( 'NONE',  ( -0.0004547108445936836100, 0.01041459057679367000, -0.9999456632943439800 ) ) ;
#1181 = CARTESIAN_POINT ( 'NONE',  ( -6.434380300171370400, -0.8102273771055952300, 0.5000000000000013300 ) ) ;
#1182 = DIRECTION ( 'NONE',  ( 0.2023805367980216800, 0.9347304317168067000, -0.2920978232508018600 ) ) ;
#1183 = DIRECTION ( 'NONE',  ( 0.9990482215818578000, 0.04361938736533650000, -2.761679773755077700E-015 ) ) ;
#1184 = CARTESIAN_POINT ( 'NONE',  ( -6.153093091034400600, -0.5811690261631906600, 0.4316119404299943500 ) ) ;
#1185 = DIRECTION ( 'NONE',  ( -0.2920978232508024700, -0.2270767997940618400, -0.9290398208082527600 ) ) ;
#1186 = CARTESIAN_POINT ( 'NONE',  ( -6.434380300171370400, -0.8102273771055952300, 0.5000000000000013300 ) ) ;
#1187 = DIRECTION ( 'NONE',  ( 0.9990482215818578000, 0.04361938736533650000, -2.761679773755077700E-015 ) ) ;
#1188 = DIRECTION ( 'NONE',  ( -0.0004547108445936836100, 0.01041459057679367000, -0.9999456632943439800 ) ) ;
#1189 = CARTESIAN_POINT ( 'NONE',  ( -6.076712978833652000, -0.2283939205054899000, -0.3213717717533155500 ) ) ;
#1190 = DIRECTION ( 'NONE',  ( -0.2023805367980209300, -0.9347304317168072500, -0.2920978232508007500 ) ) ;
#1191 = DIRECTION ( 'NONE',  ( 0.0000000000000000000, 0.2982699355019879400, -0.9544815585309334200 ) ) ;
#1192 = CARTESIAN_POINT ( 'NONE',  ( -5.782920891381861500, -1.567874932420836500E-017, -0.2499999999999998900 ) ) ;
#1193 = DIRECTION ( 'NONE',  ( 1.000000000000000000, 2.689687323959279400E-017, -1.859947359092440600E-016 ) ) ;
#1194 = DIRECTION ( 'NONE',  ( 0.0000000000000000000, 0.0000000000000000000, -1.000000000000000000 ) ) ;
#1195 = CARTESIAN_POINT ( 'NONE',  ( 0.9764491099811638500, 0.0000000000000000000, 0.0000000000000000000 ) ) ;
#1196 = DIRECTION ( 'NONE',  ( 1.000000000000000000, -0.0000000000000000000, -0.0000000000000000000 ) ) ;
#1197 = DIRECTION ( 'NONE',  ( 0.0000000000000000000, 0.0000000000000000000, -1.000000000000000000 ) ) ;
#1198 = CARTESIAN_POINT ( 'NONE',  ( -6.446858752463750600, -0.5244238313936119300, -0.4096638417528898300 ) ) ;
#1199 = DIRECTION ( 'NONE',  ( -0.01313469293225410000, 0.3008339274710438200, -0.9535860883653463100 ) ) ;
#1200 = DIRECTION ( 'NONE',  ( -0.9990482215818578000, -0.04361938736533493100, 8.155797577933111800E-016 ) ) ;
#1201 = DIRECTION ( 'NONE',  ( 4.450207066274950100E-019, 0.9536683554215617000, 0.3008598807876082200 ) ) ;
#1202 = CARTESIAN_POINT ( 'NONE',  ( -5.782920891381861500, -0.2863444675592799500, -0.3394809806505966200 ) ) ;
#1203 = CARTESIAN_POINT ( 'NONE',  ( -6.434380300171370400, -0.8102273771055952300, -0.5000000000000013300 ) ) ;
#1204 = DIRECTION ( 'NONE',  ( 0.04361938736533421000, -0.9990482215818578000, 0.0000000000000000000 ) ) ;
#1205 = DIRECTION ( 'NONE',  ( -0.0000000000000000000, -0.2982699355019891600, 0.9544815585309331900 ) ) ;
#1206 = CARTESIAN_POINT ( 'NONE',  ( -0.04083689323170895000, 0.7249999999999999800, -0.3555329023684089500 ) ) ;
#1207 = DIRECTION ( 'NONE',  ( 0.0000000000000000000, -0.9544815585309331900, -0.2982699355019891600 ) ) ;
#1208 = CARTESIAN_POINT ( 'NONE',  ( 0.0000000000000000000, 0.7249999999999999800, 0.0000000000000000000 ) ) ;
#1209 = CARTESIAN_POINT ( 'NONE',  ( -0.09822211262797753100, 0.7250000000000003100, -0.5250000000000040200 ) ) ;
#1210 = CARTESIAN_POINT ( 'NONE',  ( 2.190660131763644100E-015, 0.7249999999999999800, -0.1795847254815942700 ) ) ;
#1211 = CARTESIAN_POINT ( 'NONE',  ( 0.0000000000000000000, 0.7249999999999999800, 0.0000000000000000000 ) ) ;
#1212 = CARTESIAN_POINT ( 'NONE',  ( -0.09822211262797747600, 0.7250000000000003100, 0.5250000000000038000 ) ) ;
#1213 = CARTESIAN_POINT ( 'NONE',  ( 2.295300974821879000E-015, 0.7249999999999999800, 0.1795065434921248600 ) ) ;
#1214 = DIRECTION ( 'NONE',  ( 1.000000000000000000, 0.0000000000000000000, 0.0000000000000000000 ) ) ;
#1215 = CARTESIAN_POINT ( 'NONE',  ( -0.04065173124098511000, 0.7249999999999999800, 0.3549860914388733900 ) ) ;
#1216 = CARTESIAN_POINT ( 'NONE',  ( -4.099999999999999600, -0.5250000000000000200, -0.5250000000000000200 ) ) ;
#1217 = DIRECTION ( 'NONE',  ( 0.0000000000000000000, 0.0000000000000000000, -1.000000000000000000 ) ) ;
#1218 = DIRECTION ( 'NONE',  ( 0.0000000000000000000, -1.000000000000000000, -2.065146995210493300E-016 ) ) ;
#1219 = PLANE ( 'NONE',  #1140 ) ;
#1220 = PLANE ( 'NONE',  #1031 ) ;
#1221 = CARTESIAN_POINT ( 'NONE',  ( -4.099999999999999600, -0.7250000000000002000, 0.5249999999999970200 ) ) ;
#1222 = DIRECTION ( 'NONE',  ( 0.0000000000000000000, 2.065146995210493300E-016, -1.000000000000000000 ) ) ;
#1223 = CARTESIAN_POINT ( 'NONE',  ( -4.099999999999999600, -0.5250000000000000200, 0.5249999999999984700 ) ) ;
#1224 = CARTESIAN_POINT ( 'NONE',  ( -6.700000000000000200, -0.8218245836551888500, 0.5000000000000011100 ) ) ;
#1225 = DIRECTION ( 'NONE',  ( -1.000000000000000000, 0.0000000000000000000, 0.0000000000000000000 ) ) ;
#1226 = DIRECTION ( 'NONE',  ( -0.0004547108445936836100, 0.01041459057679367000, -0.9999456632943439800 ) ) ;
#1227 = DIRECTION ( 'NONE',  ( 0.0000000000000000000, 0.0000000000000000000, 1.000000000000000000 ) ) ;
#1228 = DIRECTION ( 'NONE',  ( 0.9990482215818578000, 0.04361938736533650000, -2.761679773755077700E-015 ) ) ;
#1229 = PLANE ( 'NONE',  #1083 ) ;
#1230 = CARTESIAN_POINT ( 'NONE',  ( -5.200000000000000200, 0.6799999999999992700, 0.0000000000000000000 ) ) ;
#1231 = DIRECTION ( 'NONE',  ( -1.000000000000000000, 0.0000000000000000000, 0.0000000000000000000 ) ) ;
#1232 = DIRECTION ( 'NONE',  ( 0.0000000000000000000, 0.0000000000000000000, 1.000000000000000000 ) ) ;
#1233 = PLANE ( 'NONE',  #980 ) ;
#1234 = CARTESIAN_POINT ( 'NONE',  ( -4.099999999999999600, 0.5249999999999985800, -0.7249999999999999800 ) ) ;
#1235 = CARTESIAN_POINT ( 'NONE',  ( -0.09822211262797747600, 0.7250000000000003100, 0.5250000000000038000 ) ) ;
#1236 = DIRECTION ( 'NONE',  ( 0.0000000000000000000, 0.0000000000000000000, -1.000000000000000000 ) ) ;
#1237 = DIRECTION ( 'NONE',  ( -1.000000000000000000, 0.0000000000000000000, -0.0000000000000000000 ) ) ;
#1238 = CARTESIAN_POINT ( 'NONE',  ( -0.1154903239254517100, 0.7249999999999990900, 0.5759955992267645800 ) ) ;
#1239 = CARTESIAN_POINT ( 'NONE',  ( -0.1255449471701544100, 0.7040164712802683400, 0.6288048910819650200 ) ) ;
#1240 = CARTESIAN_POINT ( 'NONE',  ( -0.1255586728169054700, 0.6289065624972286500, 0.7039574772737567900 ) ) ;
#1241 = CARTESIAN_POINT ( 'NONE',  ( -0.1154927761449207300, 0.5760028409958566400, 0.7250000000001223200 ) ) ;
#1242 = CARTESIAN_POINT ( 'NONE',  ( 0.9764491099811638500, 8.327598234201994500E-017, 0.6799999999999993800 ) ) ;
#1243 = CARTESIAN_POINT ( 'NONE',  ( -0.09822211262773121500, 0.5249999999995430500, 0.7249999999999997600 ) ) ;
#1244 = LINE ( 'NONE', #1242, #1074 ) ;
#1245 = DIRECTION ( 'NONE',  ( 1.000000000000000000, -0.0000000000000000000, -0.0000000000000000000 ) ) ;
#1246 =( LENGTH_UNIT ( ) NAMED_UNIT ( * ) SI_UNIT ( .MILLI., .METRE. ) );
#1247 =( NAMED_UNIT ( * ) PLANE_ANGLE_UNIT ( ) SI_UNIT ( $, .RADIAN. ) );
#1248 =( NAMED_UNIT ( * ) SI_UNIT ( $, .STERADIAN. ) SOLID_ANGLE_UNIT ( ) );
#1249 = FILL_AREA_STYLE ('',( #1251 ) ) ;
#1250 = APPLICATION_PROTOCOL_DEFINITION ( 'draft international standard', 'automotive_design', 1998, #853 ) ;
#1251 = FILL_AREA_STYLE_COLOUR ( '', #763 ) ;
#1252 = SURFACE_STYLE_FILL_AREA ( #1249 ) ;
#1253 = PRESENTATION_STYLE_ASSIGNMENT (( #1255 ) ) ;
#1254 = SURFACE_SIDE_STYLE ('',( #1252 ) ) ;
#1255 = SURFACE_STYLE_USAGE ( .BOTH. , #1254 ) ;
#1256 =( LENGTH_UNIT ( ) NAMED_UNIT ( * ) SI_UNIT ( .MILLI., .METRE. ) );
#1257 =( NAMED_UNIT ( * ) PLANE_ANGLE_UNIT ( ) SI_UNIT ( $, .RADIAN. ) );
#1258 =( NAMED_UNIT ( * ) SI_UNIT ( $, .STERADIAN. ) SOLID_ANGLE_UNIT ( ) );
#1259 = CARTESIAN_POINT ( 'NONE',  ( 0.0000000000000000000, 0.0000000000000000000, 0.0000000000000000000 ) ) ;
#1260 = DIRECTION ( 'NONE',  ( 0.0000000000000000000, 0.0000000000000000000, 1.000000000000000000 ) ) ;
#1261 = DIRECTION ( 'NONE',  ( 1.000000000000000000, 0.0000000000000000000, 0.0000000000000000000 ) ) ;
#1262 = SHAPE_DEFINITION_REPRESENTATION ( #839, #470 ) ;
#1263 = PRODUCT_CONTEXT ( 'NONE', #853, 'mechanical' ) ;
#1264 = APPLICATION_PROTOCOL_DEFINITION ( 'draft international standard', 'automotive_design', 1998, #854 ) ;
#1265 = DIRECTION ( 'NONE',  ( 1.000000000000000000, 0.0000000000000000000, 0.0000000000000000000 ) ) ;
#1266 = DIRECTION ( 'NONE',  ( 0.2023805367980216800, 0.9347304317168067000, -0.2920978232508018600 ) ) ;
ENDSEC;
END-ISO-10303-21;
