PCBNEW-LibModule-V1  2021-07-27 21:38:29
# encoding utf-8
Units mm
$INDEX
CAPAE530X550N
$EndINDEX
$MODULE CAPAE530X550N
Po 0 0 0 15 61006ec5 00000000 ~~
Li CAPAE530X550N
Cd 865080142007-1
Kw Capacitor Polarised
Sc 0
At SMD
AR 
Op 0 0 0
T0 0 0 1.27 1.27 0 0.254 N V 21 N "C**"
T1 0 0 1.27 1.27 0 0.254 N I 21 N "CAPAE530X550N"
DS -3.95 -3.25 3.95 -3.25 0.05 24
DS 3.95 -3.25 3.95 3.25 0.05 24
DS 3.95 3.25 -3.95 3.25 0.05 24
DS -3.95 3.25 -3.95 -3.25 0.05 24
DS 2.65 -2.65 -1.325 -2.65 0.1 24
DS -1.325 -2.65 -2.65 -1.325 0.1 24
DS -2.65 -1.325 -2.65 1.325 0.1 24
DS -2.65 1.325 -1.325 2.65 0.1 24
DS -1.325 2.65 2.65 2.65 0.1 24
DS 2.65 2.65 2.65 -2.65 0.1 24
DS -3.45 -2.65 2.65 -2.65 0.2 21
DS -1.325 2.65 2.65 2.65 0.2 21
$PAD
Po -2 0
Sh "1" R 1.8 2.9 0 0 900
At SMD N 00888000
Ne 0 ""
$EndPAD
$PAD
Po 2 0
Sh "2" R 1.8 2.9 0 0 900
At SMD N 00888000
Ne 0 ""
$EndPAD
$EndMODULE CAPAE530X550N
$EndLIBRARY
