(module BatteryHolder_Keystone_2462_2xAA (layer F.Cu) (tedit 5BB4D45D)
  (descr "2xAA cell battery holder, Keystone P/N 2462, https://www.keyelco.com/product-pdf.cfm?p=1027")
  (tags "AA battery cell holder")
  (fp_text reference REF** (at 0 -10.16 180) (layer F.SilkS)
    (effects (font (size 1 1) (thickness 0.15)))
  )
  (fp_text value BatteryHolder_Keystone_2462_2xAA (at 27.165 8.715) (layer F.Fab)
    (effects (font (size 1 1) (thickness 0.15)))
  )
  (fp_text user - (at 37.945 0) (layer F.SilkS)
    (effects (font (size 1.5 1.5) (thickness 0.15)))
  )
  (fp_text user + (at 16.355 0) (layer F.SilkS)
    (effects (font (size 1.5 1.5) (thickness 0.15)))
  )
  (fp_text user %R (at 0 -10.16) (layer F.Fab)
    (effects (font (size 1 1) (thickness 0.15)))
  )
  (fp_text user + (at 37.945 14.99) (layer F.SilkS)
    (effects (font (size 1.5 1.5) (thickness 0.15)))
  )
  (fp_text user - (at 16.355 14.99) (layer F.SilkS)
    (effects (font (size 1.5 1.5) (thickness 0.15)))
  )
  (fp_text user + (at -3.81 0) (layer F.SilkS)
    (effects (font (size 1.5 1.5) (thickness 0.15)))
  )
  (fp_text user - (at -3.81 14.99) (layer F.SilkS)
    (effects (font (size 1.5 1.5) (thickness 0.15)))
  )
  (fp_line (start 57.17 24.21) (end 57.17 -9.22) (layer F.CrtYd) (width 0.05))
  (fp_line (start -2.84 24.21) (end 57.17 24.21) (layer F.CrtYd) (width 0.05))
  (fp_line (start -2.84 -9.22) (end -2.84 24.21) (layer F.CrtYd) (width 0.05))
  (fp_line (start 57.17 -9.22) (end -2.84 -9.22) (layer F.CrtYd) (width 0.05))
  (fp_line (start 57.02 24.055) (end 57.02 -9.065) (layer F.SilkS) (width 0.12))
  (fp_line (start -2.69 24.055) (end 57.02 24.055) (layer F.SilkS) (width 0.12))
  (fp_line (start -2.69 -9.065) (end -2.69 24.055) (layer F.SilkS) (width 0.12))
  (fp_line (start 57.02 -9.065) (end -2.69 -9.065) (layer F.SilkS) (width 0.12))
  (fp_line (start 17.625 17.53) (end 17.625 12.45) (layer F.SilkS) (width 0.12))
  (fp_line (start 17.625 12.45) (end 35.405 12.45) (layer F.SilkS) (width 0.12))
  (fp_line (start 35.405 12.45) (end 35.405 13.72) (layer F.SilkS) (width 0.12))
  (fp_line (start 35.405 13.72) (end 36.675 13.72) (layer F.SilkS) (width 0.12))
  (fp_line (start 36.675 13.72) (end 36.675 16.26) (layer F.SilkS) (width 0.12))
  (fp_line (start 36.675 16.26) (end 35.405 16.26) (layer F.SilkS) (width 0.12))
  (fp_line (start 35.405 16.26) (end 35.405 17.53) (layer F.SilkS) (width 0.12))
  (fp_line (start 35.405 17.53) (end 17.625 17.53) (layer F.SilkS) (width 0.12))
  (fp_line (start 36.675 -1.27) (end 36.675 2.54) (layer F.SilkS) (width 0.12))
  (fp_line (start 36.675 2.54) (end 18.895 2.54) (layer F.SilkS) (width 0.12))
  (fp_line (start 18.895 2.54) (end 18.895 1.27) (layer F.SilkS) (width 0.12))
  (fp_line (start 18.895 1.27) (end 17.625 1.27) (layer F.SilkS) (width 0.12))
  (fp_line (start 17.625 1.27) (end 17.625 -1.27) (layer F.SilkS) (width 0.12))
  (fp_line (start 17.625 -1.27) (end 18.895 -1.27) (layer F.SilkS) (width 0.12))
  (fp_line (start 18.895 -1.27) (end 18.895 -2.54) (layer F.SilkS) (width 0.12))
  (fp_line (start 18.895 -2.54) (end 36.675 -2.54) (layer F.SilkS) (width 0.12))
  (fp_line (start 36.675 -2.54) (end 36.675 -1.27) (layer F.SilkS) (width 0.12))
  (fp_line (start -1.42 7.241) (end 55.75 7.241) (layer F.SilkS) (width 0.12))
  (fp_line (start 55.75 7.749) (end -1.42 7.749) (layer F.SilkS) (width 0.12))
  (fp_line (start 17.625 20.245) (end 17.625 22.785) (layer F.SilkS) (width 0.12))
  (fp_line (start 17.625 22.785) (end 36.675 22.785) (layer F.SilkS) (width 0.12))
  (fp_line (start 36.675 22.785) (end 36.675 20.245) (layer F.SilkS) (width 0.12))
  (fp_line (start 49.375 -5.255) (end 36.675 -5.255) (layer F.SilkS) (width 0.12))
  (fp_line (start 36.675 -5.255) (end 36.675 -7.795) (layer F.SilkS) (width 0.12))
  (fp_line (start 36.675 -7.795) (end 17.625 -7.795) (layer F.SilkS) (width 0.12))
  (fp_line (start 17.625 -7.795) (end 17.625 -5.255) (layer F.SilkS) (width 0.12))
  (fp_line (start 49.375 20.245) (end 36.675 20.245) (layer F.SilkS) (width 0.12))
  (fp_line (start 4.925 -5.255) (end 17.625 -5.255) (layer F.SilkS) (width 0.12))
  (fp_line (start 4.925 -5.255) (end 4.925 -7.795) (layer F.SilkS) (width 0.12))
  (fp_line (start 4.925 -7.795) (end -1.42 -7.795) (layer F.SilkS) (width 0.12))
  (fp_line (start -1.42 -7.795) (end -1.42 22.785) (layer F.SilkS) (width 0.12))
  (fp_line (start -1.42 22.785) (end 4.925 22.785) (layer F.SilkS) (width 0.12))
  (fp_line (start 4.925 22.785) (end 4.925 20.245) (layer F.SilkS) (width 0.12))
  (fp_line (start 4.925 20.245) (end 17.625 20.245) (layer F.SilkS) (width 0.12))
  (fp_line (start 55.75 -7.795) (end 49.375 -7.795) (layer F.SilkS) (width 0.12))
  (fp_line (start 49.375 -7.795) (end 49.375 -5.255) (layer F.SilkS) (width 0.12))
  (fp_line (start 55.75 -7.795) (end 55.75 22.785) (layer F.SilkS) (width 0.12))
  (fp_line (start 55.75 22.785) (end 49.375 22.785) (layer F.SilkS) (width 0.12))
  (fp_line (start 49.375 22.785) (end 49.375 20.245) (layer F.SilkS) (width 0.12))
  (fp_line (start -2.59 23.955) (end -2.59 -8.965) (layer F.Fab) (width 0.1))
  (fp_line (start 56.92 23.955) (end 56.92 -8.965) (layer F.Fab) (width 0.1))
  (fp_line (start -2.59 23.955) (end 56.92 23.955) (layer F.Fab) (width 0.1))
  (fp_line (start -2.59 -8.965) (end 56.92 -8.965) (layer F.Fab) (width 0.1))
  (pad 1 thru_hole rect (at 0 0) (size 2 2) (drill 1.02) (layers *.Cu *.Mask))
  (pad 2 thru_hole circle (at 0 14.99) (size 2 2) (drill 1.02) (layers *.Cu *.Mask))
  (pad "" np_thru_hole circle (at 27.165 14.99) (size 3.3 3.3) (drill 3.3) (layers *.Cu *.Mask))
  (pad "" np_thru_hole circle (at 27.165 0) (size 3.3 3.3) (drill 3.3) (layers *.Cu *.Mask))
  (model BatteryHolder_Keystone_2462_2xAA.STEP
    (at (xyz 0 0 0))
    (scale (xyz 1 1 1))
    (rotate (xyz 0 0 0))
  )
)
