(module "SON100P300X300X80-7N-D" (layer F.Cu)
  (descr "3x3 6-Pin DFN")
  (tags "Integrated Circuit")
  (attr smd)
  (fp_text reference IC** (at 0 0) (layer F.SilkS)
    (effects (font (size 1.27 1.27) (thickness 0.254)))
  )
  (fp_text user %R (at 0 0) (layer F.Fab)
    (effects (font (size 1.27 1.27) (thickness 0.254)))
  )
  (fp_text value "SON100P300X300X80-7N-D" (at 0 0) (layer F.SilkS) hide
    (effects (font (size 1.27 1.27) (thickness 0.254)))
  )
  (fp_line (start -2.125 -1.75) (end 2.125 -1.75) (layer F.CrtYd) (width 0.05))
  (fp_line (start 2.125 -1.75) (end 2.125 1.75) (layer F.CrtYd) (width 0.05))
  (fp_line (start 2.125 1.75) (end -2.125 1.75) (layer F.CrtYd) (width 0.05))
  (fp_line (start -2.125 1.75) (end -2.125 -1.75) (layer F.CrtYd) (width 0.05))
  (fp_line (start -1.5 -1.5) (end 1.5 -1.5) (layer F.Fab) (width 0.1))
  (fp_line (start 1.5 -1.5) (end 1.5 1.5) (layer F.Fab) (width 0.1))
  (fp_line (start 1.5 1.5) (end -1.5 1.5) (layer F.Fab) (width 0.1))
  (fp_line (start -1.5 1.5) (end -1.5 -1.5) (layer F.Fab) (width 0.1))
  (fp_line (start -1.5 -0.75) (end -0.75 -1.5) (layer F.Fab) (width 0.1))
  (fp_circle (center -1.875 -1.725) (end -1.875 -1.6) (layer F.SilkS) (width 0.25))
  (pad 1 smd rect (at -1.45 -1 90) (size 0.45 0.85) (layers F.Cu F.Paste F.Mask))
  (pad 2 smd rect (at -1.45 0 90) (size 0.45 0.85) (layers F.Cu F.Paste F.Mask))
  (pad 3 smd rect (at -1.45 1 90) (size 0.45 0.85) (layers F.Cu F.Paste F.Mask))
  (pad 4 smd rect (at 1.45 1 90) (size 0.45 0.85) (layers F.Cu F.Paste F.Mask))
  (pad 5 smd rect (at 1.45 0 90) (size 0.45 0.85) (layers F.Cu F.Paste F.Mask))
  (pad 6 smd rect (at 1.45 -1 90) (size 0.45 0.85) (layers F.Cu F.Paste F.Mask))
  (pad 7 smd rect (at 0 0 0) (size 1.6 2.5) (layers F.Cu F.Paste F.Mask))
  (model Si7051-A20-IM.STEP
    (at (xyz 0 0 0))
    (scale (xyz 1 1 1))
    (rotate (xyz 0 0 0))
  )
)
